{
  "minecraft:acacia_button": { "name": "Acacia Button" },
  "minecraft:acacia_door": { "name": "Acacia Door" },
  "minecraft:acacia_fence": { "name": "Acacia Fence" },
  "minecraft:acacia_fence_gate": { "name": "Acacia Fence Gate" },
  "minecraft:acacia_leaves": { "name": "Acacia Leaves" },
  "minecraft:acacia_log": { "name": "Acacia Log" },
  "minecraft:acacia_planks": { "name": "Acacia Planks" },
  "minecraft:acacia_pressure_plate": { "name": "Acacia Pressure Plate" },
  "minecraft:acacia_sapling": { "name": "Acacia Sapling" },
  "minecraft:acacia_sign": { "name": "Acacia Sign" },
  "minecraft:acacia_slab": { "name": "Acacia Slab" },
  "minecraft:acacia_stairs": { "name": "Acacia Stairs" },
  "minecraft:acacia_trapdoor": { "name": "Acacia Trapdoor" },
  "minecraft:acacia_wood": { "name": "Acacia Wood" },
  "minecraft:activator_rail": { "name": "Activator Rail" },
  "minecraft:allium": { "name": "Allium" },
  "minecraft:andesite": { "name": "Andesite" },
  "minecraft:andesite_slab": { "name": "Andesite Slab" },
  "minecraft:andesite_stairs": { "name": "Andesite Stairs" },
  "minecraft:andesite_wall": { "name": "Andesite Wall" },
  "minecraft:anvil": { "name": "Anvil" },
  "minecraft:azure_bluet": { "name": "Azure Bluet" },
  "minecraft:bamboo": { "name": "Bamboo" },
  "minecraft:barrel": { "name": "Barrel" },
  "minecraft:beacon": { "name": "Beacon" },
  "minecraft:bell": { "name": "Bell" },
  "minecraft:birch_button": { "name": "Birch Button" },
  "minecraft:birch_door": { "name": "Birch Door" },
  "minecraft:birch_fence": { "name": "Birch Fence" },
  "minecraft:birch_fence_gate": { "name": "Birch Fence Gate" },
  "minecraft:birch_leaves": { "name": "Birch Leaves" },
  "minecraft:birch_log": { "name": "Birch Log" },
  "minecraft:birch_planks": { "name": "Birch Planks" },
  "minecraft:birch_pressure_plate": { "name": "Birch Pressure Plate" },
  "minecraft:birch_sapling": { "name": "Birch Sapling" },
  "minecraft:birch_sign": { "name": "Birch Sign" },
  "minecraft:birch_slab": { "name": "Birch Slab" },
  "minecraft:birch_stairs": { "name": "Birch Stairs" },
  "minecraft:birch_trapdoor": { "name": "Birch Trapdoor" },
  "minecraft:birch_wood": { "name": "Birch Wood" },
  "minecraft:black_banner": { "name": "Black Banner" },
  "minecraft:black_bed": { "name": "Black Bed" },
  "minecraft:black_carpet": { "name": "Black Carpet" },
  "minecraft:black_concrete": { "name": "Black Concrete" },
  "minecraft:black_concrete_powder": { "name": "Black Concrete Powder" },
  "minecraft:black_glazed_terracotta": { "name": "Black Glazed Terracotta" },
  "minecraft:black_shulker_box": { "name": "Black Shulker Box" },
  "minecraft:black_stained_glass": { "name": "Black Stained Glass" },
  "minecraft:black_stained_glass_pane": { "name": "Black Stained Glass Pane" },
  "minecraft:black_terracotta": { "name": "Black Terracotta" },
  "minecraft:black_wool": { "name": "Black Wool" },
  "minecraft:blast_furnace": { "name": "Blast Furnace" },
  "minecraft:coal_block": { "name": "Block of Coal" },
  "minecraft:diamond_block": { "name": "Block of Diamond" },
  "minecraft:emerald_block": { "name": "Block of Emerald" },
  "minecraft:gold_block": { "name": "Block of Gold" },
  "minecraft:iron_block": { "name": "Block of Iron" },
  "minecraft:quartz_block": { "name": "Block of Quartz" },
  "minecraft:redstone_block": { "name": "Block of Redstone" },
  "minecraft:blue_banner": { "name": "Blue Banner" },
  "minecraft:blue_bed": { "name": "Blue Bed" },
  "minecraft:blue_carpet": { "name": "Blue Carpet" },
  "minecraft:blue_concrete": { "name": "Blue Concrete" },
  "minecraft:blue_concrete_powder": { "name": "Blue Concrete Powder" },
  "minecraft:blue_glazed_terracotta": { "name": "Blue Glazed Terracotta" },
  "minecraft:blue_ice": { "name": "Blue Ice" },
  "minecraft:blue_orchid": { "name": "Blue Orchid" },
  "minecraft:blue_shulker_box": { "name": "Blue Shulker Box" },
  "minecraft:blue_stained_glass": { "name": "Blue Stained Glass" },
  "minecraft:blue_stained_glass_pane": { "name": "Blue Stained Glass Pane" },
  "minecraft:blue_terracotta": { "name": "Blue Terracotta" },
  "minecraft:blue_wool": { "name": "Blue Wool" },
  "minecraft:bone_block": { "name": "Bone Block" },
  "minecraft:bookshelf": { "name": "Bookshelf" },
  "minecraft:brain_coral": { "name": "Brain Coral" },
  "minecraft:brain_coral_block": { "name": "Brain Coral Block" },
  "minecraft:brain_coral_fan": { "name": "Brain Coral Fan" },
  "minecraft:brewing_stand": { "name": "Brewing Stand" },
  "minecraft:brick_slab": { "name": "Brick Slab" },
  "minecraft:brick_stairs": { "name": "Brick Stairs" },
  "minecraft:brick_wall": { "name": "Brick Wall" },
  "minecraft:bricks": { "name": "Bricks" },
  "minecraft:brown_banner": { "name": "Brown Banner" },
  "minecraft:brown_bed": { "name": "Brown Bed" },
  "minecraft:brown_carpet": { "name": "Brown Carpet" },
  "minecraft:brown_concrete": { "name": "Brown Concrete" },
  "minecraft:brown_concrete_powder": { "name": "Brown Concrete Powder" },
  "minecraft:brown_glazed_terracotta": { "name": "Brown Glazed Terracotta" },
  "minecraft:brown_mushroom": { "name": "Brown Mushroom" },
  "minecraft:brown_mushroom_block": { "name": "Brown Mushroom Block" },
  "minecraft:brown_shulker_box": { "name": "Brown Shulker Box" },
  "minecraft:brown_stained_glass": { "name": "Brown Stained Glass" },
  "minecraft:brown_stained_glass_pane": { "name": "Brown Stained Glass Pane" },
  "minecraft:brown_terracotta": { "name": "Brown Terracotta" },
  "minecraft:brown_wool": { "name": "Brown Wool" },
  "minecraft:bubble_coral": { "name": "Bubble Coral" },
  "minecraft:bubble_coral_block": { "name": "Bubble Coral Block" },
  "minecraft:bubble_coral_fan": { "name": "Bubble Coral Fan" },
  "minecraft:cactus": { "name": "Cactus" },
  "minecraft:cake": { "name": "Cake" },
  "minecraft:campfire": { "name": "Campfire" },
  "minecraft:cartography_table": { "name": "Cartography Table" },
  "minecraft:carved_pumpkin": { "name": "Carved Pumpkin" },
  "minecraft:cauldron": { "name": "Cauldron" },
  "minecraft:chest": { "name": "Chest" },
  "minecraft:chipped_anvil": { "name": "Chipped Anvil" },
  "minecraft:chiseled_quartz_block": { "name": "Chiseled Quartz Block" },
  "minecraft:chiseled_red_sandstone": { "name": "Chiseled Red Sandstone" },
  "minecraft:chiseled_sandstone": { "name": "Chiseled Sandstone" },
  "minecraft:chiseled_stone_bricks": { "name": "Chiseled Stone Bricks" },
  "minecraft:chorus_flower": { "name": "Chorus Flower" },
  "minecraft:clay": { "name": "Clay" },
  "minecraft:coal_ore": { "name": "Coal Ore" },
  "minecraft:coarse_dirt": { "name": "Coarse Dirt" },
  "minecraft:cobblestone": { "name": "Cobblestone" },
  "minecraft:cobblestone_slab": { "name": "Cobblestone Slab" },
  "minecraft:cobblestone_stairs": { "name": "Cobblestone Stairs" },
  "minecraft:cobblestone_wall": { "name": "Cobblestone Wall" },
  "minecraft:cobweb": { "name": "Cobweb" },
  "minecraft:composter": { "name": "Composter" },
  "minecraft:conduit": { "name": "Conduit" },
  "minecraft:cornflower": { "name": "Cornflower" },
  "minecraft:cracked_stone_bricks": { "name": "Cracked Stone Bricks" },
  "minecraft:crafting_table": { "name": "Crafting Table" },
  "minecraft:creeper_head": { "name": "Creeper Head" },
  "minecraft:cut_red_sandstone": { "name": "Cut Red Sandstone" },
  "minecraft:cut_red_sandstone_slab": { "name": "Cut Red Sandstone Slab" },
  "minecraft:cut_sandstone": { "name": "Cut Sandstone" },
  "minecraft:cut_sandstone_slab": { "name": "Cut Sandstone Slab" },
  "minecraft:cyan_banner": { "name": "Cyan Banner" },
  "minecraft:cyan_bed": { "name": "Cyan Bed" },
  "minecraft:cyan_carpet": { "name": "Cyan Carpet" },
  "minecraft:cyan_concrete": { "name": "Cyan Concrete" },
  "minecraft:cyan_concrete_powder": { "name": "Cyan Concrete Powder" },
  "minecraft:cyan_glazed_terracotta": { "name": "Cyan Glazed Terracotta" },
  "minecraft:cyan_shulker_box": { "name": "Cyan Shulker Box" },
  "minecraft:cyan_stained_glass": { "name": "Cyan Stained Glass" },
  "minecraft:cyan_stained_glass_pane": { "name": "Cyan Stained Glass Pane" },
  "minecraft:cyan_terracotta": { "name": "Cyan Terracotta" },
  "minecraft:cyan_wool": { "name": "Cyan Wool" },
  "minecraft:damaged_anvil": { "name": "Damaged Anvil" },
  "minecraft:dandelion": { "name": "Dandelion" },
  "minecraft:dark_oak_button": { "name": "Dark Oak Button" },
  "minecraft:dark_oak_door": { "name": "Dark Oak Door" },
  "minecraft:dark_oak_fence": { "name": "Dark Oak Fence" },
  "minecraft:dark_oak_fence_gate": { "name": "Dark Oak Fence Gate" },
  "minecraft:dark_oak_leaves": { "name": "Dark Oak Leaves" },
  "minecraft:dark_oak_log": { "name": "Dark Oak Log" },
  "minecraft:dark_oak_planks": { "name": "Dark Oak Planks" },
  "minecraft:dark_oak_pressure_plate": { "name": "Dark Oak Pressure Plate" },
  "minecraft:dark_oak_sapling": { "name": "Dark Oak Sapling" },
  "minecraft:dark_oak_sign": { "name": "Dark Oak Sign" },
  "minecraft:dark_oak_slab": { "name": "Dark Oak Slab" },
  "minecraft:dark_oak_stairs": { "name": "Dark Oak Stairs" },
  "minecraft:dark_oak_trapdoor": { "name": "Dark Oak Trapdoor" },
  "minecraft:dark_oak_wood": { "name": "Dark Oak Wood" },
  "minecraft:dark_prismarine": { "name": "Dark Prismarine" },
  "minecraft:dark_prismarine_slab": { "name": "Dark Prismarine Slab" },
  "minecraft:dark_prismarine_stairs": { "name": "Dark Prismarine Stairs" },
  "minecraft:daylight_detector": { "name": "Daylight Detector" },
  "minecraft:dead_brain_coral": { "name": "Dead Brain Coral" },
  "minecraft:dead_brain_coral_block": { "name": "Dead Brain Coral Block" },
  "minecraft:dead_brain_coral_fan": { "name": "Dead Brain Coral Fan" },
  "minecraft:dead_bubble_coral": { "name": "Dead Bubble Coral" },
  "minecraft:dead_bubble_coral_block": { "name": "Dead Bubble Coral Block" },
  "minecraft:dead_bubble_coral_fan": { "name": "Dead Bubble Coral Fan" },
  "minecraft:dead_bush": { "name": "Dead Bush" },
  "minecraft:dead_fire_coral": { "name": "Dead Fire Coral" },
  "minecraft:dead_fire_coral_block": { "name": "Dead Fire Coral Block" },
  "minecraft:dead_fire_coral_fan": { "name": "Dead Fire Coral Fan" },
  "minecraft:dead_horn_coral": { "name": "Dead Horn Coral" },
  "minecraft:dead_horn_coral_block": { "name": "Dead Horn Coral Block" },
  "minecraft:dead_horn_coral_fan": { "name": "Dead Horn Coral Fan" },
  "minecraft:dead_tube_coral": { "name": "Dead Tube Coral" },
  "minecraft:dead_tube_coral_block": { "name": "Dead Tube Coral Block" },
  "minecraft:dead_tube_coral_fan": { "name": "Dead Tube Coral Fan" },
  "minecraft:detector_rail": { "name": "Detector Rail" },
  "minecraft:diamond_ore": { "name": "Diamond Ore" },
  "minecraft:diorite": { "name": "Diorite" },
  "minecraft:diorite_slab": { "name": "Diorite Slab" },
  "minecraft:diorite_stairs": { "name": "Diorite Stairs" },
  "minecraft:diorite_wall": { "name": "Diorite Wall" },
  "minecraft:dirt": { "name": "Dirt" },
  "minecraft:dispenser": { "name": "Dispenser" },
  "minecraft:dragon_egg": { "name": "Dragon Egg" },
  "minecraft:dragon_head": { "name": "Dragon Head" },
  "minecraft:dried_kelp_block": { "name": "Dried Kelp Block" },
  "minecraft:dropper": { "name": "Dropper" },
  "minecraft:emerald_ore": { "name": "Emerald Ore" },
  "minecraft:enchanting_table": { "name": "Enchanting Table" },
  "minecraft:end_rod": { "name": "End Rod" },
  "minecraft:end_stone": { "name": "End Stone" },
  "minecraft:end_stone_brick_slab": { "name": "End Stone Brick Slab" },
  "minecraft:end_stone_brick_stairs": { "name": "End Stone Brick Stairs" },
  "minecraft:end_stone_brick_wall": { "name": "End Stone Brick Wall" },
  "minecraft:end_stone_bricks": { "name": "End Stone Bricks" },
  "minecraft:ender_chest": { "name": "Ender Chest" },
  "minecraft:farmland": { "name": "Farmland" },
  "minecraft:fern": { "name": "Fern" },
  "minecraft:fire_coral": { "name": "Fire Coral" },
  "minecraft:fire_coral_block": { "name": "Fire Coral Block" },
  "minecraft:fire_coral_fan": { "name": "Fire Coral Fan" },
  "minecraft:fletching_table": { "name": "Fletching Table" },
  "minecraft:flower_pot": { "name": "Flower Pot" },
  "minecraft:furnace": { "name": "Furnace" },
  "minecraft:glass": { "name": "Glass" },
  "minecraft:glass_pane": { "name": "Glass Pane" },
  "minecraft:glowstone": { "name": "Glowstone" },
  "minecraft:gold_ore": { "name": "Gold Ore" },
  "minecraft:granite": { "name": "Granite" },
  "minecraft:granite_slab": { "name": "Granite Slab" },
  "minecraft:granite_stairs": { "name": "Granite Stairs" },
  "minecraft:granite_wall": { "name": "Granite Wall" },
  "minecraft:grass": { "name": "Grass" },
  "minecraft:grass_block": { "name": "Grass Block" },
  "minecraft:gravel": { "name": "Gravel" },
  "minecraft:gray_banner": { "name": "Gray Banner" },
  "minecraft:gray_bed": { "name": "Gray Bed" },
  "minecraft:gray_carpet": { "name": "Gray Carpet" },
  "minecraft:gray_concrete": { "name": "Gray Concrete" },
  "minecraft:gray_concrete_powder": { "name": "Gray Concrete Powder" },
  "minecraft:gray_glazed_terracotta": { "name": "Gray Glazed Terracotta" },
  "minecraft:gray_shulker_box": { "name": "Gray Shulker Box" },
  "minecraft:gray_stained_glass": { "name": "Gray Stained Glass" },
  "minecraft:gray_stained_glass_pane": { "name": "Gray Stained Glass Pane" },
  "minecraft:gray_terracotta": { "name": "Gray Terracotta" },
  "minecraft:gray_wool": { "name": "Gray Wool" },
  "minecraft:green_banner": { "name": "Green Banner" },
  "minecraft:green_bed": { "name": "Green Bed" },
  "minecraft:green_carpet": { "name": "Green Carpet" },
  "minecraft:green_concrete": { "name": "Green Concrete" },
  "minecraft:green_concrete_powder": { "name": "Green Concrete Powder" },
  "minecraft:green_glazed_terracotta": { "name": "Green Glazed Terracotta" },
  "minecraft:green_shulker_box": { "name": "Green Shulker Box" },
  "minecraft:green_stained_glass": { "name": "Green Stained Glass" },
  "minecraft:green_stained_glass_pane": { "name": "Green Stained Glass Pane" },
  "minecraft:green_terracotta": { "name": "Green Terracotta" },
  "minecraft:green_wool": { "name": "Green Wool" },
  "minecraft:grindstone": { "name": "Grindstone" },
  "minecraft:hay_block": { "name": "Hay Bale" },
  "minecraft:heavy_weighted_pressure_plate": {
    "name": "Heavy Weighted Pressure Plate"
  },
  "minecraft:hopper": { "name": "Hopper" },
  "minecraft:horn_coral": { "name": "Horn Coral" },
  "minecraft:horn_coral_block": { "name": "Horn Coral Block" },
  "minecraft:horn_coral_fan": { "name": "Horn Coral Fan" },
  "minecraft:ice": { "name": "Ice" },
  "minecraft:iron_bars": { "name": "Iron Bars" },
  "minecraft:iron_door": { "name": "Iron Door" },
  "minecraft:iron_ore": { "name": "Iron Ore" },
  "minecraft:iron_trapdoor": { "name": "Iron Trapdoor" },
  "minecraft:jack_o_lantern": { "name": "Jack o'Lantern" },
  "minecraft:jukebox": { "name": "Jukebox" },
  "minecraft:jungle_button": { "name": "Jungle Button" },
  "minecraft:jungle_door": { "name": "Jungle Door" },
  "minecraft:jungle_fence": { "name": "Jungle Fence" },
  "minecraft:jungle_fence_gate": { "name": "Jungle Fence Gate" },
  "minecraft:jungle_leaves": { "name": "Jungle Leaves" },
  "minecraft:jungle_log": { "name": "Jungle Log" },
  "minecraft:jungle_planks": { "name": "Jungle Planks" },
  "minecraft:jungle_pressure_plate": { "name": "Jungle Pressure Plate" },
  "minecraft:jungle_sapling": { "name": "Jungle Sapling" },
  "minecraft:jungle_sign": { "name": "Jungle Sign" },
  "minecraft:jungle_slab": { "name": "Jungle Slab" },
  "minecraft:jungle_stairs": { "name": "Jungle Stairs" },
  "minecraft:jungle_trapdoor": { "name": "Jungle Trapdoor" },
  "minecraft:jungle_wood": { "name": "Jungle Wood" },
  "minecraft:kelp": { "name": "Kelp" },
  "minecraft:ladder": { "name": "Ladder" },
  "minecraft:lantern": { "name": "Lantern" },
  "minecraft:lapis_block": { "name": "Lapis Lazuli Block" },
  "minecraft:lapis_ore": { "name": "Lapis Lazuli Ore" },
  "minecraft:lectern": { "name": "Lectern" },
  "minecraft:lever": { "name": "Lever" },
  "minecraft:light_blue_banner": { "name": "Light Blue Banner" },
  "minecraft:light_blue_bed": { "name": "Light Blue Bed" },
  "minecraft:light_blue_carpet": { "name": "Light Blue Carpet" },
  "minecraft:light_blue_concrete": { "name": "Light Blue Concrete" },
  "minecraft:light_blue_concrete_powder": {
    "name": "Light Blue Concrete Powder"
  },
  "minecraft:light_blue_glazed_terracotta": {
    "name": "Light Blue Glazed Terracotta"
  },
  "minecraft:light_blue_shulker_box": { "name": "Light Blue Shulker Box" },
  "minecraft:light_blue_stained_glass": { "name": "Light Blue Stained Glass" },
  "minecraft:light_blue_stained_glass_pane": {
    "name": "Light Blue Stained Glass Pane"
  },
  "minecraft:light_blue_terracotta": { "name": "Light Blue Terracotta" },
  "minecraft:light_blue_wool": { "name": "Light Blue Wool" },
  "minecraft:light_gray_banner": { "name": "Light Gray Banner" },
  "minecraft:light_gray_bed": { "name": "Light Gray Bed" },
  "minecraft:light_gray_carpet": { "name": "Light Gray Carpet" },
  "minecraft:light_gray_concrete": { "name": "Light Gray Concrete" },
  "minecraft:light_gray_concrete_powder": {
    "name": "Light Gray Concrete Powder"
  },
  "minecraft:light_gray_glazed_terracotta": {
    "name": "Light Gray Glazed Terracotta"
  },
  "minecraft:light_gray_shulker_box": { "name": "Light Gray Shulker Box" },
  "minecraft:light_gray_stained_glass": { "name": "Light Gray Stained Glass" },
  "minecraft:light_gray_stained_glass_pane": {
    "name": "Light Gray Stained Glass Pane"
  },
  "minecraft:light_gray_terracotta": { "name": "Light Gray Terracotta" },
  "minecraft:light_gray_wool": { "name": "Light Gray Wool" },
  "minecraft:light_weighted_pressure_plate": {
    "name": "Light Weighted Pressure Plate"
  },
  "minecraft:lilac": { "name": "Lilac" },
  "minecraft:lily_pad": { "name": "Lily Pad" },
  "minecraft:lily_of_the_valley": { "name": "Lily of the Valley" },
  "minecraft:lime_banner": { "name": "Lime Banner" },
  "minecraft:lime_bed": { "name": "Lime Bed" },
  "minecraft:lime_carpet": { "name": "Lime Carpet" },
  "minecraft:lime_concrete": { "name": "Lime Concrete" },
  "minecraft:lime_concrete_powder": { "name": "Lime Concrete Powder" },
  "minecraft:lime_glazed_terracotta": { "name": "Lime Glazed Terracotta" },
  "minecraft:lime_shulker_box": { "name": "Lime Shulker Box" },
  "minecraft:lime_stained_glass": { "name": "Lime Stained Glass" },
  "minecraft:lime_stained_glass_pane": { "name": "Lime Stained Glass Pane" },
  "minecraft:lime_terracotta": { "name": "Lime Terracotta" },
  "minecraft:lime_wool": { "name": "Lime Wool" },
  "minecraft:loom": { "name": "Loom" },
  "minecraft:magenta_banner": { "name": "Magenta Banner" },
  "minecraft:magenta_bed": { "name": "Magenta Bed" },
  "minecraft:magenta_carpet": { "name": "Magenta Carpet" },
  "minecraft:magenta_concrete": { "name": "Magenta Concrete" },
  "minecraft:magenta_concrete_powder": { "name": "Magenta Concrete Powder" },
  "minecraft:magenta_glazed_terracotta": {
    "name": "Magenta Glazed Terracotta"
  },
  "minecraft:magenta_shulker_box": { "name": "Magenta Shulker Box" },
  "minecraft:magenta_stained_glass": { "name": "Magenta Stained Glass" },
  "minecraft:magenta_stained_glass_pane": {
    "name": "Magenta Stained Glass Pane"
  },
  "minecraft:magenta_terracotta": { "name": "Magenta Terracotta" },
  "minecraft:magenta_wool": { "name": "Magenta Wool" },
  "minecraft:magma_block": { "name": "Magma Block" },
  "minecraft:melon": { "name": "Melon" },
  "minecraft:mossy_cobblestone": { "name": "Mossy Cobblestone" },
  "minecraft:mossy_cobblestone_slab": { "name": "Mossy Cobblestone Slab" },
  "minecraft:mossy_cobblestone_stairs": { "name": "Mossy Cobblestone Stairs" },
  "minecraft:mossy_cobblestone_wall": { "name": "Mossy Cobblestone Wall" },
  "minecraft:mossy_stone_brick_slab": { "name": "Mossy Stone Brick Slab" },
  "minecraft:mossy_stone_brick_stairs": { "name": "Mossy Stone Brick Stairs" },
  "minecraft:mossy_stone_brick_wall": { "name": "Mossy Stone Brick Wall" },
  "minecraft:mossy_stone_bricks": { "name": "Mossy Stone Bricks" },
  "minecraft:mushroom_stem": { "name": "Mushroom Stem" },
  "minecraft:mycelium": { "name": "Mycelium" },
  "minecraft:nether_brick_fence": { "name": "Nether Brick Fence" },
  "minecraft:nether_brick_slab": { "name": "Nether Brick Slab" },
  "minecraft:nether_brick_stairs": { "name": "Nether Brick Stairs" },
  "minecraft:nether_brick_wall": { "name": "Nether Brick Wall" },
  "minecraft:nether_bricks": { "name": "Nether Bricks" },
  "minecraft:nether_quartz_ore": { "name": "Nether Quartz Ore" },
  "minecraft:nether_wart": { "name": "Nether Wart" },
  "minecraft:nether_wart_block": { "name": "Nether Wart Block" },
  "minecraft:netherrack": { "name": "Netherrack" },
  "minecraft:note_block": { "name": "Note Block" },
  "minecraft:oak_button": { "name": "Oak Button" },
  "minecraft:oak_door": { "name": "Oak Door" },
  "minecraft:oak_fence": { "name": "Oak Fence" },
  "minecraft:oak_fence_gate": { "name": "Oak Fence Gate" },
  "minecraft:oak_leaves": { "name": "Oak Leaves" },
  "minecraft:oak_log": { "name": "Oak Log" },
  "minecraft:oak_planks": { "name": "Oak Planks" },
  "minecraft:oak_pressure_plate": { "name": "Oak Pressure Plate" },
  "minecraft:oak_sapling": { "name": "Oak Sapling" },
  "minecraft:oak_sign": { "name": "Oak Sign" },
  "minecraft:oak_slab": { "name": "Oak Slab" },
  "minecraft:oak_stairs": { "name": "Oak Stairs" },
  "minecraft:oak_trapdoor": { "name": "Oak Trapdoor" },
  "minecraft:oak_wood": { "name": "Oak Wood" },
  "minecraft:observer": { "name": "Observer" },
  "minecraft:obsidian": { "name": "Obsidian" },
  "minecraft:orange_banner": { "name": "Orange Banner" },
  "minecraft:orange_bed": { "name": "Orange Bed" },
  "minecraft:orange_carpet": { "name": "Orange Carpet" },
  "minecraft:orange_concrete": { "name": "Orange Concrete" },
  "minecraft:orange_concrete_powder": { "name": "Orange Concrete Powder" },
  "minecraft:orange_glazed_terracotta": { "name": "Orange Glazed Terracotta" },
  "minecraft:orange_shulker_box": { "name": "Orange Shulker Box" },
  "minecraft:orange_stained_glass": { "name": "Orange Stained Glass" },
  "minecraft:orange_stained_glass_pane": {
    "name": "Orange Stained Glass Pane"
  },
  "minecraft:orange_terracotta": { "name": "Orange Terracotta" },
  "minecraft:orange_tulip": { "name": "Orange Tulip" },
  "minecraft:orange_wool": { "name": "Orange Wool" },
  "minecraft:oxeye_daisy": { "name": "Oxeye Daisy" },
  "minecraft:packed_ice": { "name": "Packed Ice" },
  "minecraft:peony": { "name": "Peony" },
  "minecraft:petrified_oak_slab": { "name": "Petrified Oak Slab" },
  "minecraft:pink_banner": { "name": "Pink Banner" },
  "minecraft:pink_bed": { "name": "Pink Bed" },
  "minecraft:pink_carpet": { "name": "Pink Carpet" },
  "minecraft:pink_concrete": { "name": "Pink Concrete" },
  "minecraft:pink_concrete_powder": { "name": "Pink Concrete Powder" },
  "minecraft:pink_glazed_terracotta": { "name": "Pink Glazed Terracotta" },
  "minecraft:pink_shulker_box": { "name": "Pink Shulker Box" },
  "minecraft:pink_stained_glass": { "name": "Pink Stained Glass" },
  "minecraft:pink_stained_glass_pane": { "name": "Pink Stained Glass Pane" },
  "minecraft:pink_terracotta": { "name": "Pink Terracotta" },
  "minecraft:pink_tulip": { "name": "Pink Tulip" },
  "minecraft:pink_wool": { "name": "Pink Wool" },
  "minecraft:piston": { "name": "Piston" },
  "minecraft:podzol": { "name": "Podzol" },
  "minecraft:polished_andesite": { "name": "Polished Andesite" },
  "minecraft:polished_andesite_slab": { "name": "Polished Andesite Slab" },
  "minecraft:polished_andesite_stairs": { "name": "Polished Andesite Stairs" },
  "minecraft:polished_diorite": { "name": "Polished Diorite" },
  "minecraft:polished_diorite_slab": { "name": "Polished Diorite Slab" },
  "minecraft:polished_diorite_stairs": { "name": "Polished Diorite Stairs" },
  "minecraft:polished_granite": { "name": "Polished Granite" },
  "minecraft:polished_granite_slab": { "name": "Polished Granite Slab" },
  "minecraft:polished_granite_stairs": { "name": "Polished Granite Stairs" },
  "minecraft:poppy": { "name": "Poppy" },
  "minecraft:powered_rail": { "name": "Powered Rail" },
  "minecraft:prismarine": { "name": "Prismarine" },
  "minecraft:prismarine_brick_slab": { "name": "Prismarine Brick Slab" },
  "minecraft:prismarine_brick_stairs": { "name": "Prismarine Brick Stairs" },
  "minecraft:prismarine_bricks": { "name": "Prismarine Bricks" },
  "minecraft:prismarine_slab": { "name": "Prismarine Slab" },
  "minecraft:prismarine_stairs": { "name": "Prismarine Stairs" },
  "minecraft:prismarine_wall": { "name": "Prismarine Wall" },
  "minecraft:pumpkin": { "name": "Pumpkin" },
  "minecraft:purple_banner": { "name": "Purple Banner" },
  "minecraft:purple_bed": { "name": "Purple Bed" },
  "minecraft:purple_carpet": { "name": "Purple Carpet" },
  "minecraft:purple_concrete": { "name": "Purple Concrete" },
  "minecraft:purple_concrete_powder": { "name": "Purple Concrete Powder" },
  "minecraft:purple_glazed_terracotta": { "name": "Purple Glazed Terracotta" },
  "minecraft:purple_shulker_box": { "name": "Purple Shulker Box" },
  "minecraft:purple_stained_glass": { "name": "Purple Stained Glass" },
  "minecraft:purple_stained_glass_pane": {
    "name": "Purple Stained Glass Pane"
  },
  "minecraft:purple_terracotta": { "name": "Purple Terracotta" },
  "minecraft:purple_wool": { "name": "Purple Wool" },
  "minecraft:purpur_block": { "name": "Purpur Block" },
  "minecraft:purpur_pillar": { "name": "Purpur Pillar" },
  "minecraft:purpur_slab": { "name": "Purpur Slab" },
  "minecraft:purpur_stairs": { "name": "Purpur Stairs" },
  "minecraft:quartz_pillar": { "name": "Quartz Pillar" },
  "minecraft:quartz_slab": { "name": "Quartz Slab" },
  "minecraft:quartz_stairs": { "name": "Quartz Stairs" },
  "minecraft:rail": { "name": "Rail" },
  "minecraft:red_banner": { "name": "Red Banner" },
  "minecraft:red_bed": { "name": "Red Bed" },
  "minecraft:red_carpet": { "name": "Red Carpet" },
  "minecraft:red_concrete": { "name": "Red Concrete" },
  "minecraft:red_concrete_powder": { "name": "Red Concrete Powder" },
  "minecraft:red_glazed_terracotta": { "name": "Red Glazed Terracotta" },
  "minecraft:red_mushroom": { "name": "Red Mushroom" },
  "minecraft:red_mushroom_block": { "name": "Red Mushroom Block" },
  "minecraft:red_nether_brick_slab": { "name": "Red Nether Brick Slab" },
  "minecraft:red_nether_brick_stairs": { "name": "Red Nether Brick Stairs" },
  "minecraft:red_nether_brick_wall": { "name": "Red Nether Brick Wall" },
  "minecraft:red_nether_bricks": { "name": "Red Nether Bricks" },
  "minecraft:red_sand": { "name": "Red Sand" },
  "minecraft:red_sandstone": { "name": "Red Sandstone" },
  "minecraft:red_sandstone_slab": { "name": "Red Sandstone Slab" },
  "minecraft:red_sandstone_stairs": { "name": "Red Sandstone Stairs" },
  "minecraft:red_sandstone_wall": { "name": "Red Sandstone Wall" },
  "minecraft:red_shulker_box": { "name": "Red Shulker Box" },
  "minecraft:red_stained_glass": { "name": "Red Stained Glass" },
  "minecraft:red_stained_glass_pane": { "name": "Red Stained Glass Pane" },
  "minecraft:red_terracotta": { "name": "Red Terracotta" },
  "minecraft:red_tulip": { "name": "Red Tulip" },
  "minecraft:red_wool": { "name": "Red Wool" },
  "minecraft:comparator": { "name": "Redstone Comparator" },
  "minecraft:redstone_lamp": { "name": "Redstone Lamp" },
  "minecraft:redstone_ore": { "name": "Redstone Ore" },
  "minecraft:repeater": { "name": "Redstone Repeater" },
  "minecraft:redstone_torch": { "name": "Redstone Torch" },
  "minecraft:rose_bush": { "name": "Rose Bush" },
  "minecraft:sand": { "name": "Sand" },
  "minecraft:sandstone": { "name": "Sandstone" },
  "minecraft:sandstone_slab": { "name": "Sandstone Slab" },
  "minecraft:sandstone_stairs": { "name": "Sandstone Stairs" },
  "minecraft:sandstone_wall": { "name": "Sandstone Wall" },
  "minecraft:scaffolding": { "name": "Scaffolding" },
  "minecraft:sea_lantern": { "name": "Sea Lantern" },
  "minecraft:sea_pickle": { "name": "Sea Pickle" },
  "minecraft:seagrass": { "name": "Seagrass" },
  "minecraft:shulker_box": { "name": "Shulker Box" },
  "minecraft:skeleton_skull": { "name": "Skeleton Skull" },
  "minecraft:slime_block": { "name": "Slime Block" },
  "minecraft:smithing_table": { "name": "Smithing Table" },
  "minecraft:smoker": { "name": "Smoker" },
  "minecraft:smooth_quartz": { "name": "Smooth Quartz" },
  "minecraft:smooth_quartz_slab": { "name": "Smooth Quartz Slab" },
  "minecraft:smooth_quartz_stairs": { "name": "Smooth Quartz Stairs" },
  "minecraft:smooth_red_sandstone": { "name": "Smooth Red Sandstone" },
  "minecraft:smooth_red_sandstone_slab": {
    "name": "Smooth Red Sandstone Slab"
  },
  "minecraft:smooth_red_sandstone_stairs": {
    "name": "Smooth Red Sandstone Stairs"
  },
  "minecraft:smooth_sandstone": { "name": "Smooth Sandstone" },
  "minecraft:smooth_sandstone_slab": { "name": "Smooth Sandstone Slab" },
  "minecraft:smooth_sandstone_stairs": { "name": "Smooth Sandstone Stairs" },
  "minecraft:smooth_stone": { "name": "Smooth Stone" },
  "minecraft:smooth_stone_slab": { "name": "Smooth Stone Slab" },
  "minecraft:snow": { "name": "Snow" },
  "minecraft:snow_block": { "name": "Snow Block" },
  "minecraft:soul_sand": { "name": "Soul Sand" },
  "minecraft:sponge": { "name": "Sponge" },
  "minecraft:spruce_button": { "name": "Spruce Button" },
  "minecraft:spruce_door": { "name": "Spruce Door" },
  "minecraft:spruce_fence": { "name": "Spruce Fence" },
  "minecraft:spruce_fence_gate": { "name": "Spruce Fence Gate" },
  "minecraft:spruce_leaves": { "name": "Spruce Leaves" },
  "minecraft:spruce_log": { "name": "Spruce Log" },
  "minecraft:spruce_planks": { "name": "Spruce Planks" },
  "minecraft:spruce_pressure_plate": { "name": "Spruce Pressure Plate" },
  "minecraft:spruce_sapling": { "name": "Spruce Sapling" },
  "minecraft:spruce_sign": { "name": "Spruce Sign" },
  "minecraft:spruce_slab": { "name": "Spruce Slab" },
  "minecraft:spruce_stairs": { "name": "Spruce Stairs" },
  "minecraft:spruce_trapdoor": { "name": "Spruce Trapdoor" },
  "minecraft:spruce_wood": { "name": "Spruce Wood" },
  "minecraft:sticky_piston": { "name": "Sticky Piston" },
  "minecraft:stone": { "name": "Stone" },
  "minecraft:stone_brick_slab": { "name": "Stone Brick Slab" },
  "minecraft:stone_brick_stairs": { "name": "Stone Brick Stairs" },
  "minecraft:stone_brick_wall": { "name": "Stone Brick Wall" },
  "minecraft:stone_bricks": { "name": "Stone Bricks" },
  "minecraft:stone_button": { "name": "Stone Button" },
  "minecraft:stone_pressure_plate": { "name": "Stone Pressure Plate" },
  "minecraft:stone_slab": { "name": "Stone Slab" },
  "minecraft:stone_stairs": { "name": "Stone Stairs" },
  "minecraft:stonecutter": { "name": "Stonecutter" },
  "minecraft:stripped_acacia_log": { "name": "Stripped Acacia Log" },
  "minecraft:stripped_acacia_wood": { "name": "Stripped Acacia Wood" },
  "minecraft:stripped_birch_log": { "name": "Stripped Birch Log" },
  "minecraft:stripped_birch_wood": { "name": "Stripped Birch Wood" },
  "minecraft:stripped_dark_oak_log": { "name": "Stripped Dark Oak Log" },
  "minecraft:stripped_dark_oak_wood": { "name": "Stripped Dark Oak Wood" },
  "minecraft:stripped_jungle_log": { "name": "Stripped Jungle Log" },
  "minecraft:stripped_jungle_wood": { "name": "Stripped Jungle Wood" },
  "minecraft:stripped_oak_log": { "name": "Stripped Oak Log" },
  "minecraft:stripped_oak_wood": { "name": "Stripped Oak Wood" },
  "minecraft:stripped_spruce_log": { "name": "Stripped Spruce Log" },
  "minecraft:stripped_spruce_wood": { "name": "Stripped Spruce Wood" },
  "minecraft:sugar_cane": { "name": "Sugar Cane" },
  "minecraft:sunflower": { "name": "Sunflower" },
  "minecraft:tnt": { "name": "TNT" },
  "minecraft:terracotta": { "name": "Terracotta" },
  "minecraft:torch": { "name": "Torch" },
  "minecraft:trapped_chest": { "name": "Trapped Chest" },
  "minecraft:tripwire_hook": { "name": "Tripwire Hook" },
  "minecraft:tube_coral": { "name": "Tube Coral" },
  "minecraft:tube_coral_block": { "name": "Tube Coral Block" },
  "minecraft:tube_coral_fan": { "name": "Tube Coral Fan" },
  "minecraft:turtle_egg": { "name": "Turtle Egg" },
  "minecraft:vine": { "name": "Vines" },
  "minecraft:wet_sponge": { "name": "Wet Sponge" },
  "minecraft:white_banner": { "name": "White Banner" },
  "minecraft:white_bed": { "name": "White Bed" },
  "minecraft:white_carpet": { "name": "White Carpet" },
  "minecraft:white_concrete": { "name": "White Concrete" },
  "minecraft:white_concrete_powder": { "name": "White Concrete Powder" },
  "minecraft:white_glazed_terracotta": { "name": "White Glazed Terracotta" },
  "minecraft:white_shulker_box": { "name": "White Shulker Box" },
  "minecraft:white_stained_glass": { "name": "White Stained Glass" },
  "minecraft:white_stained_glass_pane": { "name": "White Stained Glass Pane" },
  "minecraft:white_terracotta": { "name": "White Terracotta" },
  "minecraft:white_tulip": { "name": "White Tulip" },
  "minecraft:white_wool": { "name": "White Wool" },
  "minecraft:wither_rose": { "name": "Wither Rose" },
  "minecraft:wither_skeleton_skull": { "name": "Wither Skeleton Skull" },
  "minecraft:yellow_banner": { "name": "Yellow Banner" },
  "minecraft:yellow_bed": { "name": "Yellow Bed" },
  "minecraft:yellow_carpet": { "name": "Yellow Carpet" },
  "minecraft:yellow_concrete": { "name": "Yellow Concrete" },
  "minecraft:yellow_concrete_powder": { "name": "Yellow Concrete Powder" },
  "minecraft:yellow_glazed_terracotta": { "name": "Yellow Glazed Terracotta" },
  "minecraft:yellow_shulker_box": { "name": "Yellow Shulker Box" },
  "minecraft:yellow_stained_glass": { "name": "Yellow Stained Glass" },
  "minecraft:yellow_stained_glass_pane": {
    "name": "Yellow Stained Glass Pane"
  },
  "minecraft:yellow_terracotta": { "name": "Yellow Terracotta" },
  "minecraft:yellow_wool": { "name": "Yellow Wool" },
  "minecraft:zombie_head": { "name": "Zombie Head" },
  "minecraft:acacia_boat": { "name": "Acacia Boat" },
  "minecraft:armor_stand": { "name": "Armor Stand" },
  "minecraft:beetroot_seeds": { "name": "Beetroot Seeds" },
  "minecraft:birch_boat": { "name": "Birch Boat" },
  "minecraft:experience_bottle": { "name": "Bottle o' Enchanting" },
  "minecraft:bucket": { "name": "Bucket" },
  "minecraft:cod_bucket": { "name": "Bucket of Cod" },
  "minecraft:pufferfish_bucket": { "name": "Bucket of Pufferfish" },
  "minecraft:salmon_bucket": { "name": "Bucket of Salmon" },
  "minecraft:tropical_fish_bucket": { "name": "Bucket of Tropical Fish" },
  "minecraft:carrot": { "name": "Carrot" },
  "minecraft:cocoa_beans": { "name": "Cocoa Beans" },
  "minecraft:dark_oak_boat": { "name": "Dark Oak Boat" },
  "minecraft:egg": { "name": "Egg" },
  "minecraft:ender_pearl": { "name": "Ender Pearl" },
  "minecraft:end_crystal": { "name": "End Crystal" },
  "minecraft:ender_eye": { "name": "Eye of Ender" },
  "minecraft:firework_rocket": { "name": "Firework Rocket" },
  "minecraft:fire_charge": { "name": "Fire Charge" },
  "minecraft:flint_and_steel": { "name": "Flint and Steel" },
  "minecraft:item_frame": { "name": "Item Frame" },
  "minecraft:jungle_boat": { "name": "Jungle Boat" },
  "minecraft:lava_bucket": { "name": "Lava Bucket" },
  "minecraft:lead": { "name": "Lead" },
  "minecraft:melon_seeds": { "name": "Melon Seeds" },
  "minecraft:minecart": { "name": "Minecart" },
  "minecraft:chest_minecart": { "name": "Minecart with Chest" },
  "minecraft:furnace_minecart": { "name": "Minecart with Furnace" },
  "minecraft:hopper_minecart": { "name": "Minecart with Hopper" },
  "minecraft:tnt_minecart": { "name": "Minecart with TNT" },
  "minecraft:oak_boat": { "name": "Oak Boat" },
  "minecraft:painting": { "name": "Painting" },
  "minecraft:potato": { "name": "Potato" },
  "minecraft:pumpkin_seeds": { "name": "Pumpkin Seeds" },
  "minecraft:redstone": { "name": "Redstone Dust" },
  "minecraft:snowball": { "name": "Snowball" },
  "minecraft:spruce_boat": { "name": "Spruce Boat" },
  "minecraft:string": { "name": "String" },
  "minecraft:sweet_berries": { "name": "Sweet Berries" },
  "minecraft:trident": { "name": "Trident" },
  "minecraft:water_bucket": { "name": "Water Bucket" },
  "minecraft:wheat_seeds": { "name": "Wheat Seeds" },
  "minecraft:apple": { "name": "Apple" },
  "minecraft:arrow": { "name": "Arrow" },
  "minecraft:baked_potato": { "name": "Baked Potato" },
  "minecraft:beetroot_soup": { "name": "Beetroot Soup" },
  "minecraft:beetroot": { "name": "Beetroot" },
  "minecraft:black_dye": { "name": "Black Dye" },
  "minecraft:blue_dye": { "name": "Blue Dye" },
  "minecraft:bone": { "name": "Bone" },
  "minecraft:bone_meal": { "name": "Bone Meal" },
  "minecraft:writable_book": { "name": "Book and Quill" },
  "minecraft:bow": { "name": "Bow" },
  "minecraft:bowl": { "name": "Bowl" },
  "minecraft:bread": { "name": "Bread" },
  "minecraft:brown_dye": { "name": "Brown Dye" },
  "minecraft:carrot_on_a_stick": { "name": "Carrot on a Stick" },
  "minecraft:chainmail_boots": { "name": "Chainmail Boots" },
  "minecraft:chainmail_chestplate": { "name": "Chainmail Chestplate" },
  "minecraft:chainmail_helmet": { "name": "Chainmail Helmet" },
  "minecraft:chainmail_leggings": { "name": "Chainmail Leggings" },
  "minecraft:charcoal": { "name": "Charcoal" },
  "minecraft:chorus_fruit": { "name": "Chorus Fruit" },
  "minecraft:coal": { "name": "Coal" },
  "minecraft:cooked_chicken": { "name": "Cooked Chicken" },
  "minecraft:cooked_cod": { "name": "Cooked Cod" },
  "minecraft:cooked_mutton": { "name": "Cooked Mutton" },
  "minecraft:cooked_porkchop": { "name": "Cooked Porkchop" },
  "minecraft:cooked_rabbit": { "name": "Cooked Rabbit" },
  "minecraft:cooked_salmon": { "name": "Cooked Salmon" },
  "minecraft:cookie": { "name": "Cookie" },
  "minecraft:crossbow": { "name": "Crossbow" },
  "minecraft:cyan_dye": { "name": "Cyan Dye" },
  "minecraft:diamond_axe": { "name": "Diamond Axe" },
  "minecraft:diamond_boots": { "name": "Diamond Boots" },
  "minecraft:diamond_chestplate": { "name": "Diamond Chestplate" },
  "minecraft:diamond_helmet": { "name": "Diamond Helmet" },
  "minecraft:diamond_hoe": { "name": "Diamond Hoe" },
  "minecraft:diamond_horse_armor": { "name": "Diamond Horse Armor" },
  "minecraft:diamond_leggings": { "name": "Diamond Leggings" },
  "minecraft:diamond_pickaxe": { "name": "Diamond Pickaxe" },
  "minecraft:diamond_shovel": { "name": "Diamond Shovel" },
  "minecraft:diamond_sword": { "name": "Diamond Sword" },
  "minecraft:dried_kelp": { "name": "Dried Kelp" },
  "minecraft:elytra": { "name": "Elytra" },
  "minecraft:map": { "name": "Empty Map" },
  "minecraft:enchanted_book": { "name": "Enchanted Book" },
  "minecraft:enchanted_golden_apple": { "name": "Enchanted Golden Apple" },
  "minecraft:fishing_rod": { "name": "Fishing Rod" },
  "minecraft:glass_bottle": { "name": "Glass Bottle" },
  "minecraft:golden_apple": { "name": "Golden Apple" },
  "minecraft:golden_axe": { "name": "Golden Axe" },
  "minecraft:golden_boots": { "name": "Golden Boots" },
  "minecraft:golden_carrot": { "name": "Golden Carrot" },
  "minecraft:golden_chestplate": { "name": "Golden Chestplate" },
  "minecraft:golden_helmet": { "name": "Golden Helmet" },
  "minecraft:golden_hoe": { "name": "Golden Hoe" },
  "minecraft:golden_horse_armor": { "name": "Golden Horse Armor" },
  "minecraft:golden_leggings": { "name": "Golden Leggings" },
  "minecraft:golden_pickaxe": { "name": "Golden Pickaxe" },
  "minecraft:golden_shovel": { "name": "Golden Shovel" },
  "minecraft:golden_sword": { "name": "Golden Sword" },
  "minecraft:gray_dye": { "name": "Gray Dye" },
  "minecraft:green_dye": { "name": "Green Dye" },
  "minecraft:ink_sac": { "name": "Ink Sac" },
  "minecraft:iron_axe": { "name": "Iron Axe" },
  "minecraft:iron_boots": { "name": "Iron Boots" },
  "minecraft:iron_chestplate": { "name": "Iron Chestplate" },
  "minecraft:iron_helmet": { "name": "Iron Helmet" },
  "minecraft:iron_hoe": { "name": "Iron Hoe" },
  "minecraft:iron_horse_armor": { "name": "Iron Horse Armor" },
  "minecraft:iron_leggings": { "name": "Iron Leggings" },
  "minecraft:iron_nugget": { "name": "Iron Nugget" },
  "minecraft:iron_pickaxe": { "name": "Iron Pickaxe" },
  "minecraft:iron_shovel": { "name": "Iron Shovel" },
  "minecraft:iron_sword": { "name": "Iron Sword" },
  "minecraft:lapis_lazuli": { "name": "Lapis Lazuli" },
  "minecraft:leather_boots": { "name": "Leather Boots" },
  "minecraft:leather_helmet": { "name": "Leather Cap" },
  "minecraft:leather_horse_armor": { "name": "Leather Horse Armor" },
  "minecraft:leather_leggings": { "name": "Leather Pants" },
  "minecraft:leather_chestplate": { "name": "Leather Tunic" },
  "minecraft:light_blue_dye": { "name": "Light Blue Dye" },
  "minecraft:light_gray_dye": { "name": "Light Gray Dye" },
  "minecraft:lime_dye": { "name": "Lime Dye" },
  "minecraft:magenta_dye": { "name": "Magenta Dye" },
  "minecraft:melon_slice": { "name": "Melon Slice" },
  "minecraft:milk_bucket": { "name": "Milk Bucket" },
  "minecraft:mushroom_stew": { "name": "Mushroom Stew" },
  "minecraft:music_disc_13": { "name": "Music Disc (13)" },
  "minecraft:music_disc_cat": { "name": "Music Disc (cat)" },
  "minecraft:music_disc_blocks": { "name": "Music Disc (blocks)" },
  "minecraft:music_disc_chirp": { "name": "Music Disc (chirp)" },
  "minecraft:music_disc_far": { "name": "Music Disc (far)" },
  "minecraft:music_disc_mall": { "name": "Music Disc (mall)" },
  "minecraft:music_disc_mellohi": { "name": "Music Disc (mellohi)" },
  "minecraft:music_disc_stal": { "name": "Music Disc (stal)" },
  "minecraft:music_disc_strad": { "name": "Music Disc (strad)" },
  "minecraft:music_disc_ward": { "name": "Music Disc (ward)" },
  "minecraft:music_disc_11": { "name": "Music Disc (11)" },
  "minecraft:music_disc_wait": { "name": "Music Disc (wait)" },
  "minecraft:name_tag": { "name": "Name Tag" },
  "minecraft:orange_dye": { "name": "Orange Dye" },
  "minecraft:pink_dye": { "name": "Pink Dye" },
  "minecraft:poisonous_potato": { "name": "Poisonous Potato" },
  "minecraft:pufferfish": { "name": "Pufferfish" },
  "minecraft:pumpkin_pie": { "name": "Pumpkin Pie" },
  "minecraft:purple_dye": { "name": "Purple Dye" },
  "minecraft:rabbit_stew": { "name": "Rabbit Stew" },
  "minecraft:beef": { "name": "Raw Beef" },
  "minecraft:chicken": { "name": "Raw Chicken" },
  "minecraft:cod": { "name": "Raw Cod" },
  "minecraft:mutton": { "name": "Raw Mutton" },
  "minecraft:porkchop": { "name": "Raw Porkchop" },
  "minecraft:rabbit": { "name": "Raw Rabbit" },
  "minecraft:salmon": { "name": "Raw Salmon" },
  "minecraft:red_dye": { "name": "Red Dye" },
  "minecraft:rotten_flesh": { "name": "Rotten Flesh" },
  "minecraft:saddle": { "name": "Saddle" },
  "minecraft:shears": { "name": "Shears" },
  "minecraft:shield": { "name": "Shield" },
  "minecraft:spectral_arrow": { "name": "Spectral Arrow" },
  "minecraft:spider_eye": { "name": "Spider Eye" },
  "minecraft:cooked_beef": { "name": "Steak" },
  "minecraft:stone_axe": { "name": "Stone Axe" },
  "minecraft:stone_hoe": { "name": "Stone Hoe" },
  "minecraft:stone_pickaxe": { "name": "Stone Pickaxe" },
  "minecraft:stone_shovel": { "name": "Stone Shovel" },
  "minecraft:stone_sword": { "name": "Stone Sword" },
  "minecraft:sugar": { "name": "Sugar" },
  "minecraft:suspicious_stew": { "name": "Suspicious Stew" },
  "minecraft:totem_of_undying": { "name": "Totem of Undying" },
  "minecraft:tropical_fish": { "name": "Tropical Fish" },
  "minecraft:turtle_helmet": { "name": "Turtle Shell" },
  "minecraft:wheat": { "name": "Wheat" },
  "minecraft:white_dye": { "name": "White Dye" },
  "minecraft:wooden_axe": { "name": "Wooden Axe" },
  "minecraft:wooden_hoe": { "name": "Wooden Hoe" },
  "minecraft:wooden_pickaxe": { "name": "Wooden Pickaxe" },
  "minecraft:wooden_shovel": { "name": "Wooden Shovel" },
  "minecraft:wooden_sword": { "name": "Wooden Sword" },
  "minecraft:written_book": { "name": "Written Book" },
  "minecraft:yellow_dye": { "name": "Yellow Dye" },
  "minecraft:flower_banner_pattern": {
    "name": "Banner Pattern (Flower Charge)"
  },
  "minecraft:creeper_banner_pattern": {
    "name": "Banner Pattern (Creeper Charge)"
  },
  "minecraft:skull_banner_pattern": { "name": "Banner Pattern (Skull Charge)" },
  "minecraft:mojang_banner_pattern": { "name": "Banner Pattern (Thing)" },
  "minecraft:globe_banner_pattern": { "name": "Banner Pattern (Globe)" },
  "minecraft:blaze_powder": { "name": "Blaze Powder" },
  "minecraft:blaze_rod": { "name": "Blaze Rod" },
  "minecraft:book": { "name": "Book" },
  "minecraft:brick": { "name": "Brick" },
  "minecraft:clay_ball": { "name": "Clay" },
  "minecraft:clock": { "name": "Clock" },
  "minecraft:compass": { "name": "Compass" },
  "minecraft:diamond": { "name": "Diamond" },
  "minecraft:dragon_breath": { "name": "Dragon's Breath" },
  "minecraft:emerald": { "name": "Emerald" },
  "minecraft:feather": { "name": "Feather" },
  "minecraft:fermented_spider_eye": { "name": "Fermented Spider Eye" },
  "minecraft:firework_star": { "name": "Firework Star" },
  "minecraft:flint": { "name": "Flint" },
  "minecraft:glistering_melon_slice": { "name": "Glistering Melon Slice" },
  "minecraft:glowstone_dust": { "name": "Glowstone Dust" },
  "minecraft:gold_ingot": { "name": "Gold Ingot" },
  "minecraft:gold_nugget": { "name": "Gold Nugget" },
  "minecraft:ghast_tear": { "name": "Ghast Tear" },
  "minecraft:gunpowder": { "name": "Gunpowder" },
  "minecraft:heart_of_the_sea": { "name": "Heart of the Sea" },
  "minecraft:iron_ingot": { "name": "Iron Ingot" },
  "minecraft:leather": { "name": "Leather" },
  "minecraft:magma_cream": { "name": "Magma Cream" },
  "minecraft:nautilus_shell": { "name": "Nautilus Shell" },
  "minecraft:nether_brick": { "name": "Nether Brick" },
  "minecraft:quartz": { "name": "Nether Quartz" },
  "minecraft:nether_star": { "name": "Nether Star" },
  "minecraft:paper": { "name": "Paper" },
  "minecraft:phantom_membrane": { "name": "Phantom Membrane" },
  "minecraft:popped_chorus_fruit": { "name": "Popped Chorus Fruit" },
  "minecraft:prismarine_crystals": { "name": "Prismarine Crystals" },
  "minecraft:prismarine_shard": { "name": "Prismarine Shard" },
  "minecraft:rabbit_hide": { "name": "Rabbit Hide" },
  "minecraft:rabbit_foot": { "name": "Rabbit's Foot" },
  "minecraft:scute": { "name": "Scute" },
  "minecraft:shulker_shell": { "name": "Shulker Shell" },
  "minecraft:slime_ball": { "name": "Slimeball" },
  "minecraft:stick": { "name": "Stick" },
  "minecraft:beehive": { "name": "Beehive" },
  "minecraft:bee_nest": { "name": "Bee Nest" },
  "minecraft:honey_block": { "name": "Honey Block" },
  "minecraft:honeycomb_block": { "name": "Honeycomb Block" },
  "minecraft:honey_bottle": { "name": "Honey Bottle" },
  "minecraft:honeycomb": { "name": "Honeycomb" },
  "minecraft:crimson_nylium": { "name": "Crimson Nylium" },
  "minecraft:warped_nylium": { "name": "Warped Nylium" },
  "minecraft:crimson_planks": { "name": "Crimson Planks" },
  "minecraft:warped_planks": { "name": "Warped Planks" },
  "minecraft:nether_gold_ore": { "name": "Nether Gold Ore" },
  "minecraft:crimson_stem": { "name": "Crimson Stem" },
  "minecraft:warped_stem": { "name": "Warped Stem" },
  "minecraft:stripped_crimson_stem": { "name": "Stripped Crimson Stem" },
  "minecraft:stripped_warped_stem": { "name": "Stripped Warped Stem" },
  "minecraft:stripped_warped_hyphae": { "name": "Stripped Warped Hyphae" },
  "minecraft:stripped_crimson_hyphae": { "name": "Stripped Crimson Hyphae" },
  "minecraft:crimson_hyphae": { "name": "Crimson Hyphae" },
  "minecraft:warped_hyphae": { "name": "Warped Hyphae" },
  "minecraft:crimson_fungus": { "name": "Crimson Fungus" },
  "minecraft:warped_fungus": { "name": "Warped Fungus" },
  "minecraft:crimson_roots": { "name": "Crimson Roots" },
  "minecraft:warped_roots": { "name": "Warped Roots" },
  "minecraft:nether_sprouts": { "name": "Nether Sprouts" },
  "minecraft:weeping_vines": { "name": "Weeping Vines" },
  "minecraft:twisting_vines": { "name": "Twisting Vines" },
  "minecraft:crimson_pressure_plate": { "name": "Crimson Pressure Plate" },
  "minecraft:warped_pressure_plate": { "name": "Warped Pressure Plate" },
  "minecraft:crimson_fence": { "name": "Crimson Fence" },
  "minecraft:warped_fence": { "name": "Warped Fence" },
  "minecraft:basalt": { "name": "Basalt" },
  "minecraft:polished_basalt": { "name": "Polished Basalt" },
  "minecraft:soul_torch": { "name": "Soul Torch" },
  "minecraft:crimson_trapdoor": { "name": "Crimson Trapdoor" },
  "minecraft:warped_trapdoor": { "name": "Warped Trapdoor" },
  "minecraft:chain": { "name": "Chain" },
  "minecraft:crimson_fence_gate": { "name": "Crimson Fence Gate" },
  "minecraft:warped_fence_gate": { "name": "Warped Fence Gate" },
  "minecraft:cracked_nether_bricks": { "name": "Cracked Nether Bricks" },
  "minecraft:chiseled_nether_bricks": { "name": "Chiseled Nether Bricks" },
  "minecraft:crimson_stairs": { "name": "Crimson Stairs" },
  "minecraft:warped_stairs": { "name": "Warped Stairs" },
  "minecraft:crimson_button": { "name": "Crimson Button" },
  "minecraft:warped_button": { "name": "Warped Button" },
  "minecraft:quartz_bricks": { "name": "Quartz Bricks" },
  "minecraft:warped_wart_block": { "name": "Warped Wart Block" },
  "minecraft:crimson_door": { "name": "Crimson Door" },
  "minecraft:warped_door": { "name": "Warped Door" },
  "minecraft:netherite_ingot": { "name": "Netherite Ingot" },
  "minecraft:netherite_scrap": { "name": "Netherite Scrap" },
  "minecraft:netherite_sword": { "name": "Netherite Sword" },
  "minecraft:netherite_shovel": { "name": "Netherite Shovel" },
  "minecraft:netherite_pickaxe": { "name": "Netherite Pickaxe" },
  "minecraft:netherite_axe": { "name": "Netherite Axe" },
  "minecraft:netherite_hoe": { "name": "Netherite Hoe" },
  "minecraft:netherite_helmet": { "name": "Netherite Helmet" },
  "minecraft:netherite_chestplate": { "name": "Netherite Chestplate" },
  "minecraft:netherite_leggings": { "name": "Netherite Leggings" },
  "minecraft:netherite_boots": { "name": "Netherite Boots" },
  "minecraft:crimson_sign": { "name": "Crimson Sign" },
  "minecraft:warped_sign": { "name": "Warped Sign" },
  "minecraft:warped_fungus_on_a_stick": { "name": "Warped Fungus on a Stick" },
  "minecraft:music_disc_pigstep": { "name": "Music Disc (Pigstep)" },
  "minecraft:piglin_banner_pattern": { "name": "Banner Pattern (Snout)" },
  "minecraft:soul_lantern": { "name": "Soul Lantern" },
  "minecraft:soul_campfire": { "name": "Soul Campfire" },
  "minecraft:shroomlight": { "name": "Shroomlight" },
  "minecraft:lodestone": { "name": "Lodestone" },
  "minecraft:netherite_block": { "name": "Block of Netherite" },
  "minecraft:ancient_debris": { "name": "Ancient Debris" },
  "minecraft:target": { "name": "Target" },
  "minecraft:crying_obsidian": { "name": "Crying Obsidian" },
  "minecraft:gilded_blackstone": { "name": "Gilded Blackstone" },
  "minecraft:respawn_anchor": { "name": "Respawn Anchor" },
  "minecraft:tall_grass": { "name": "Tall Grass" },
  "minecraft:large_fern": { "name": "Large Fern" }
}
