{
    "minecraft:stone": {"name": "Stone"},
    "minecraft:granite": {"name": "Granite"},
    "minecraft:polished_granite": {"name": "Polished Granite"},
    "minecraft:diorite": {"name": "Diorite"},
    "minecraft:polished_diorite": {"name": "Polished Diorite"},
    "minecraft:andesite": {"name": "Andesite"},
    "minecraft:polished_andesite": {"name": "Polished Andesite"},

    "minecraft:grass_block": {"name": "Grass Block"},

    "minecraft:dirt": {"name": "Dirt"},
    "minecraft:coarse_dirt": {"name": "Coarse Dirt"},
    "minecraft:podzol": {"name": "Podzol"},

    "minecraft:cobblestone": {"name": "Cobblestone"},

    "minecraft:oak_planks": {"name": "Oak Planks"},
    "minecraft:spruce_planks": {"name": "Spruce Planks"},
    "minecraft:birch_planks": {"name": "Birch Planks"},
    "minecraft:jungle_planks": {"name": "Jungle Planks"},
    "minecraft:acacia_planks": {"name": "Acacia Planks"},
    "minecraft:dark_oak_planks": {"name": "Dark Oak Planks"},

    "minecraft:oak_sapling": {"name": "Oak Sapling"},
    "minecraft:spruce_sapling": {"name": "Spruce Sapling"},
    "minecraft:birch_sapling": {"name": "Birch Sapling"},
    "minecraft:jungle_sapling": {"name": "Jungle Sapling"},
    "minecraft:acacia_sapling": {"name": "Acacia Sapling"},
    "minecraft:dark_oak_sapling": {"name": "Dark Oak Sapling"},

    "minecraft:bedrock": {"name": "Bedrock"},

    "minecraft:sand": {"name": "Sand"},
    "minecraft:red_sand": {"name": "Red Sand"},

    "minecraft:gravel": {"name": "Gravel"},

    "minecraft:gold_ore": {"name": "Gold Ore"},

    "minecraft:iron_ore": {"name": "Iron Ore"},

    "minecraft:coal_ore": {"name": "Coal Ore"},

    "minecraft:oak_log": {"name": "Oak Log"},
    "minecraft:spruce_log": {"name": "Spruce Log"},
    "minecraft:birch_log": {"name": "Birch Log"},
    "minecraft:jungle_log": {"name": "Jungle Log"},

    "minecraft:acacia_log": {"name": "Acacia Log"},
    "minecraft:dark_oak_log": {"name": "Dark Oak Log"},

    "minecraft:stripped_oak_log": {"name": "Stripped Oak Log"},
    "minecraft:stripped_spruce_log": {"name": "Stripped Spruce Log"},
    "minecraft:stripped_birch_log": {"name": "Stripped Birch Log"},
    "minecraft:stripped_jungle_log": {"name": "Stripped Jungle Log"},
    "minecraft:stripped_acacia_log": {"name": "Stripped Acacia Log"},
    "minecraft:stripped_dark_oak_log": {"name": "Stripped Dark Oak Log"},
    "minecraft:stripped_oak_wood": {"name": "Stripped Oak Wood"},
    "minecraft:stripped_spruce_wood": {"name": "Stripped Spruce Wood"},
    "minecraft:stripped_birch_wood": {"name": "Stripped Birch Wood"},
    "minecraft:stripped_jungle_wood": {"name": "Stripped Jungle Wood"},
    "minecraft:stripped_acacia_wood": {"name": "Stripped Acacia Wood"},
    "minecraft:stripped_dark_oak_wood": {"name": "Stripped Dark Oak Wood"},
    "minecraft:oak_wood": {"name": "Oak Wood"},
    "minecraft:spruce_wood": {"name": "Spruce Wood"},
    "minecraft:birch_wood": {"name": "Birch Wood"},
    "minecraft:jungle_wood": {"name": "Jungle Wood"},
    "minecraft:acacia_wood": {"name": "Acacia Wood"},
    "minecraft:dark_oak_wood": {"name": "Dark Oak Wood"},

    "minecraft:oak_leaves": {"name": "Oak Leaves"},
    "minecraft:spruce_leaves": {"name": "Spruce Leaves"},
    "minecraft:birch_leaves": {"name": "Birch Leaves"},
    "minecraft:jungle_leaves": {"name": "Jungle Leaves"},

    "minecraft:acacia_leaves": {"name": "Acacia Leaves"},
    "minecraft:dark_oak_leaves": {"name": "Dark Oak Leaves"},

    "minecraft:sponge": {"name": "Sponge"},
    "minecraft:wet_sponge": {"name": "Wet Sponge"},

    "minecraft:glass": {"name": "Glass"},

    "minecraft:lapis_ore": {"name": "Lapis Lazuli Ore"},

    "minecraft:lapis_block": {"name": "Lapis Lazuli Block"},

    "minecraft:dispenser": {"name": "Dispenser"},

    "minecraft:sandstone": {"name": "Sandstone"},
    "minecraft:chiseled_sandstone": {"name": "Chiseled Sandstone"},
    "minecraft:cut_sandstone": {"name": "Cut Sandstone"},
    
    "minecraft:note_block": {"name": "Note Block"},

    "minecraft:powered_rail": {"name": "Powered Rail"},

    "minecraft:detector_rail": {"name": "Detector Rail"},

    "minecraft:sticky_piston": {"name": "Sticky Piston"},

    "minecraft:cobweb": {"name": "Cobweb"},

    "minecraft:grass": {"name": "Grass"},

    "minecraft:fern": {"name": "Fern"},

    "minecraft:dead_bush": {"name": "Dead Bush"},
    "minecraft:seagrass": {"name": "Seagrass"},
    "minecraft:sea_pickle": {"name": "Sea Pickle"},

    "minecraft:piston": {"name": "Piston"},

    "minecraft:white_wool": {"name": "White Wool"},
    "minecraft:orange_wool": {"name": "Orange Wool"},
    "minecraft:magenta_wool": {"name": "Magenta Wool"},
    "minecraft:light_blue_wool": {"name": "Light Blue Wool"},
    "minecraft:yellow_wool": {"name": "Yellow Wool"},
    "minecraft:lime_wool": {"name": "Lime Wool"},
    "minecraft:pink_wool": {"name": "Pink Wool"},
    "minecraft:gray_wool": {"name": "Gray Wool"},
    "minecraft:light_gray_wool": {"name": "Light Gray Wool"},
    "minecraft:cyan_wool": {"name": "Cyan Wool"},
    "minecraft:purple_wool": {"name": "Purple Wool"},
    "minecraft:blue_wool": {"name": "Blue Wool"},
    "minecraft:brown_wool": {"name": "Brown Wool"},
    "minecraft:green_wool": {"name": "Green Wool"},
    "minecraft:red_wool": {"name": "Red Wool"},
    "minecraft:black_wool": {"name": "Black Wool"},

    "minecraft:dandelion": {"name": "Dandelion"},

    "minecraft:poppy": {"name": "Poppy"},
    "minecraft:blue_orchid": {"name": "Blue Orchid"},
    "minecraft:allium": {"name": "Allium"},
    "minecraft:azure_bluet": {"name": "Azure Bluet"},
    "minecraft:red_tulip": {"name": "Red Tulip"},
    "minecraft:orange_tulip": {"name": "Orange Tulip"},
    "minecraft:white_tulip": {"name": "White Tulip"},
    "minecraft:pink_tulip": {"name": "Pink Tulip"},
    "minecraft:oxeye_daisy": {"name": "Oxeye Daisy"},

    "minecraft:cornflower": {"name": "Cornflower"},
    "minecraft:lily_of_the_valley": {"name": "Lily of the Valley"},
    "minecraft:wither_rose": {"name": "Wither Rose"},

    "minecraft:brown_mushroom": {"name": "Brown Mushroom"},

    "minecraft:red_mushroom": {"name": "Red Mushroom"},

    "minecraft:gold_block": {"name": "Gold Block"},

    "minecraft:iron_block": {"name": "Iron Block"},

    "minecraft:oak_slab": {"name": "Oak Slab"},
    "minecraft:spruce_slab": {"name": "Spruce Slab"},
    "minecraft:birch_slab": {"name": "Birch Slab"},
    "minecraft:jungle_slab": {"name": "Jungle Slab"},
    "minecraft:acacia_slab": {"name": "Acacia Slab"},
    "minecraft:dark_oak_slab": {"name": "Dark Oak Slab"},
    "minecraft:stone_slab": {"name": "Stone Slab"},
    "minecraft:smooth_stone_slab": {"name": "Smooth Stone Slab"},
    "minecraft:sandstone_slab": {"name": "Sandstone Slab"},
    "minecraft:cut_sandstone_slab": {"name": "Cut Sandstone Slab"},
    "minecraft:petrified_oak_slab": {"name": "Petrified Oak Slab"},
    "minecraft:cobblestone_slab": {"name": "Cobblestone Slab"},
    "minecraft:brick_slab": {"name": "Brick Slab"},
    "minecraft:stone_brick_slab": {"name": "Stone Brick Slab"},
    "minecraft:nether_brick_slab": {"name": "Nether Brick Slab"},
    "minecraft:quartz_slab": {"name": "Quartz Slab"},
    "minecraft:red_sandstone_slab": {"name": "Red Sandstone Slab"},
    "minecraft:cut_red_sandstone_slab": {"name": "Cut Red Sandstone Slab"},
    "minecraft:purpur_slab": {"name": "Purpur Slab"},
    "minecraft:prismarine_slab": {"name": "Prismarine Slab"},
    "minecraft:prismarine_brick_slab": {"name": "Prismarine Brick Slab"},
    "minecraft:dark_prismarine_slab": {"name": "Dark Prismarine Slab"},
    "minecraft:smooth_quartz": {"name": "Smooth Quartz"},
    "minecraft:smooth_red_sandstone": {"name": "Smooth Red Sandstone"},
    "minecraft:smooth_sandstone": {"name": "Smooth Sandstone"},
    "minecraft:smooth_stone": {"name": "Smooth Stone"},
    "minecraft:bricks": {"name": "Bricks"},
    "minecraft:tnt": {"name": "TNT"},
    "minecraft:bookshelf": {"name": "Bookshelf"},
    "minecraft:mossy_cobblestone": {"name": "Mossy Cobblestone"},
    "minecraft:obsidian": {"name": "Obsidian"},
    "minecraft:torch": {"name": "Torch"},
    "minecraft:end_rod": {"name": "End Rod"},
    "minecraft:chorus_plant": {"name": "Chorus Plant"},
    "minecraft:chorus_flower": {"name": "Chorus Flower"},
    "minecraft:purpur_block": {"name": "Purpur Block"},
    "minecraft:purpur_pillar": {"name": "Purpur Pillar"},
    "minecraft:purpur_stairs": {"name": "Purpur Stairs"},
    "minecraft:oak_stairs": {"name": "Oak Stairs"},
    "minecraft:chest": {"name": "Chest"},
    "minecraft:diamond_ore": {"name": "Diamond Ore"},
    "minecraft:diamond_block": {"name": "Diamond Block"},
    "minecraft:crafting_table": {"name": "Crafting Table"},
    "minecraft:farmland": {"name": "Farmland"},
    "minecraft:furnace": {"name": "Furnace"},
    "minecraft:ladder": {"name": "Ladder"},
    "minecraft:rail": {"name": "Rail"},
    "minecraft:cobblestone_stairs": {"name": "Cobblestone Stairs"},
    "minecraft:lever": {"name": "Lever"},
    "minecraft:stone_pressure_plate": {"name": "Stone Pressure Plate"},
    "minecraft:oak_pressure_plate": {"name": "Oak Pressure Plate"},
    "minecraft:spruce_pressure_plate": {"name": "Spruce Pressure Plate"},
    "minecraft:birch_pressure_plate": {"name": "Birch Pressure Plate"},
    "minecraft:jungle_pressure_plate": {"name": "Jungle Pressure Plate"},
    "minecraft:acacia_pressure_plate": {"name": "Acacia Pressure Plate"},
    "minecraft:dark_oak_pressure_plate": {"name": "Dark Oak Pressure Plate"},
    "minecraft:redstone_ore": {"name": "Redstone Ore"},
    "minecraft:redstone_torch": {"name": "Redstone Torch"},
    "minecraft:stone_button": {"name": "Stone Button"},
    "minecraft:snow": {"name": "Snow"},
    "minecraft:ice": {"name": "Ice"},
    "minecraft:snow_block": {"name": "Snow Block"},
    "minecraft:cactus": {"name": "Cactus"},
    "minecraft:clay": {"name": "Clay"},
    "minecraft:jukebox": {"name": "Jukebox"},
    "minecraft:oak_fence": {"name": "Oak Fence"},
    "minecraft:spruce_fence": {"name": "Spruce Fence"},
    "minecraft:birch_fence": {"name": "Birch Fence"},
    "minecraft:jungle_fence": {"name": "Jungle Fence"},
    "minecraft:acacia_fence": {"name": "Acacia Fence"},
    "minecraft:dark_oak_fence": {"name": "Dark Oak Fence"},
    "minecraft:pumpkin": {"name": "Pumpkin"},
    "minecraft:carved_pumpkin": {"name": "Carved Pumpkin"},
    "minecraft:netherrack": {"name": "Netherrack"},
    "minecraft:soul_sand": {"name": "Soul Sand"},
    "minecraft:glowstone": {"name": "Glowstone"},
    "minecraft:jack_o_lantern": {"name": "Jack o'Lantern"},
    "minecraft:oak_trapdoor": {"name": "Oak Trapdoor"},
    "minecraft:spruce_trapdoor": {"name": "Spruce Trapdoor"},
    "minecraft:birch_trapdoor": {"name": "Birch Trapdoor"},
    "minecraft:jungle_trapdoor": {"name": "Jungle Trapdoor"},
    "minecraft:acacia_trapdoor": {"name": "Acacia Trapdoor"},
    "minecraft:dark_oak_trapdoor": {"name": "Dark Oak Trapdoor"},
    "minecraft:infested_stone": {"name": "Infested Stone"},
    "minecraft:infested_cobblestone": {"name": "Infested Cobblestone"},
    "minecraft:infested_stone_bricks": {"name": "Infested Stone Bricks"},
    "minecraft:infested_mossy_stone_bricks": {"name": "Infested Mossy Stone Bricks"},
    "minecraft:infested_cracked_stone_bricks": {"name": "Infested Cracked Stone Bricks"},
    "minecraft:infested_chiseled_stone_bricks": {"name": "Infested Chiseled Stone Bricks"},
    "minecraft:stone_bricks": {"name": "Stone Bricks"},
    "minecraft:mossy_stone_bricks": {"name": "Mossy Stone Bricks"},
    "minecraft:cracked_stone_bricks": {"name": "Cracked Stone Bricks"},
    "minecraft:chiseled_stone_bricks": {"name": "Chiseled Stone Bricks"},
    "minecraft:brown_mushroom_block": {"name": "Brown Mushroom Block"},
    "minecraft:red_mushroom_block": {"name": "Red Mushroom Block"},
    "minecraft:mushroom_stem": {"name": "Mushroom Stem"},
    "minecraft:iron_bars": {"name": "Iron Bars"},
    "minecraft:glass_pane": {"name": "Glass Pane"},
    "minecraft:melon": {"name": "Melon"},
    "minecraft:vine": {"name": "Vines"},
    "minecraft:oak_fence_gate": {"name": "Oak Fence Gate"},
    "minecraft:spruce_fence_gate": {"name": "Spruce Fence Gate"},
    "minecraft:birch_fence_gate": {"name": "Birch Fence Gate"},
    "minecraft:jungle_fence_gate": {"name": "Jungle Fence Gate"},
    "minecraft:acacia_fence_gate": {"name": "Acacia Fence Gate"},
    "minecraft:dark_oak_fence_gate": {"name": "Dark Oak Fence Gate"},
    "minecraft:brick_stairs": {"name": "Brick Stairs"},
    "minecraft:stone_brick_stairs": {"name": "Stone Brick Stairs"},
    "minecraft:mycelium": {"name": "Mycelium"},
    "minecraft:lily_pad": {"name": "Lily Pad"},
    "minecraft:nether_bricks": {"name": "Nether Bricks"},
    "minecraft:nether_brick_fence": {"name": "Nether Brick Fence"},
    "minecraft:nether_brick_stairs": {"name": "Nether Brick Stairs"},
    "minecraft:enchanting_table": {"name": "Enchanting Table"},
    "minecraft:end_portal_frame": {"name": "End Portal Frame"},
    "minecraft:end_stone": {"name": "End Stone"},
    "minecraft:end_stone_bricks": {"name": "End Stone Bricks"},
    "minecraft:redstone_lamp": {"name": "Redstone Lamp"},
    "minecraft:sandstone_stairs": {"name": "Sandstone Stairs"},
    "minecraft:emerald_ore": {"name": "Emerald Ore"},
    "minecraft:ender_chest": {"name": "Ender Chest"},
    "minecraft:tripwire_hook": {"name": "Tripwire Hook"},
    "minecraft:emerald_block": {"name": "Emerald Block"},
    "minecraft:spruce_stairs": {"name": "Spruce Stairs"},
    "minecraft:birch_stairs": {"name": "Birch Stairs"},
    "minecraft:jungle_stairs": {"name": "Jungle Stairs"},
    "minecraft:beacon": {"name": "Beacon"},
    "minecraft:cobblestone_wall": {"name": "Cobblestone Wall"},
    "minecraft:mossy_cobblestone_wall": {"name": "Mossy Cobblestone Wall"},
    "minecraft:brick_wall": {"name": "Brick Wall"},
    "minecraft:prismarine_wall": {"name": "Prismarine Wall"},
    "minecraft:red_sandstone_wall": {"name": "Red Sandstone Wall"},
    "minecraft:mossy_stone_brick_wall": {"name": "Mossy Stone Brick Wall"},
    "minecraft:granite_wall": {"name": "Granite Wall"},
    "minecraft:stone_brick_wall": {"name": "Stone Brick Wall"},
    "minecraft:nether_brick_wall": {"name": "Nether Brick Wall"},
    "minecraft:andesite_wall": {"name": "Andesite Wall"},
    "minecraft:red_nether_brick_wall": {"name": "Red Nether Brick Wall"},
    "minecraft:sandstone_wall": {"name": "Sandstone Wall"},
    "minecraft:end_stone_brick_wall": {"name": "End Stone Brick Wall"},
    "minecraft:diorite_wall": {"name": "Diorite Wall"},
    "minecraft:oak_button": {"name": "Oak Button"},
    "minecraft:spruce_button": {"name": "Spruce Button"},
    "minecraft:birch_button": {"name": "Birch Button"},
    "minecraft:jungle_button": {"name": "Jungle Button"},
    "minecraft:acacia_button": {"name": "Acacia Button"},
    "minecraft:dark_oak_button": {"name": "Dark Oak Button"},
    "minecraft:anvil": {"name": "Anvil"},
    "minecraft:chipped_anvil": {"name": "Chipped Anvil"},
    "minecraft:damaged_anvil": {"name": "Damaged Anvil"},
    "minecraft:trapped_chest": {"name": "Trapped Chest"},
    "minecraft:light_weighted_pressure_plate": {"name": "Light Weighted Pressure Plate"},
    "minecraft:heavy_weighted_pressure_plate": {"name": "Heavy Weighted Pressure Plate"},
    "minecraft:daytlight_detector": {"name": "Daylight Detector"},
    "minecraft:redstone_block": {"name": "Redstone Block"},
    "minecraft:nether_quartz_ore": {"name": "Nether Quartz Ore"},
    "minecraft:hopper": {"name": "Hopper"},
    "minecraft:quartz_block": {"name": "Quartz Block"},
    "minecraft:chiseled_quartz_block": {"name": "Chiseled Quartz Block"},
    "minecraft:quartz_pillar": {"name": "Quartz Pillar"},
    "minecraft:quartz_stairs": {"name": "Quartz Stairs"},
    "minecraft:activator_rail": {"name": "Activator Rail"},
    "minecraft:dropper": {"name": "Dropper"},
    "minecraft:white_terracotta": {"name": "White Terracotta"},
    "minecraft:orange_terracotta": {"name": "Orange Terracotta"},
    "minecraft:magenta_terracotta": {"name": "Magenta Terracotta"},
    "minecraft:light_blue_terracotta": {"name": "Light Blue Terracotta"},
    "minecraft:yellow_terracotta": {"name": "Yellow Terracotta"},
    "minecraft:lime_terracotta": {"name": "Lime Terracotta"},
    "minecraft:pink_terracotta": {"name": "Pink Terracotta"},
    "minecraft:gray_terracotta": {"name": "Gray Terracotta"},
    "minecraft:light_gray_terracotta": {"name": "Light Gray Terracotta"},
    "minecraft:cyan_terracotta": {"name": "Cyan Terracotta"},
    "minecraft:purple_terracotta": {"name": "Purple Terracotta"},
    "minecraft:blue_terracotta": {"name": "Blue Terracotta"},
    "minecraft:brown_terracotta": {"name": "Brown Terracotta"},
    "minecraft:green_terracotta": {"name": "Green Terracotta"},
    "minecraft:red_terracotta": {"name": "Red Terracotta"},
    "minecraft:black_terracotta": {"name": "Black Terracotta"},
    "minecraft:iron_trapdoor": {"name": "Iron Trapdoor"},
    "minecraft:hay_block": {"name": "Hay Bale"},
    "minecraft:white_carpet": {"name": "White Carpet"},
    "minecraft:orange_carpet": {"name": "Orange Carpet"},
    "minecraft:magenta_carpet": {"name": "Magenta Carpet"},
    "minecraft:light_blue_carpet": {"name": "Light Blue Carpet"},
    "minecraft:yellow_carpet": {"name": "Yellow Carpet"},
    "minecraft:lime_carpet": {"name": "Lime Carpet"},
    "minecraft:pink_carpet": {"name": "Pink Carpet"},
    "minecraft:gray_carpet": {"name": "Gray Carpet"},
    "minecraft:light_gray_carpet": {"name": "Light Gray Carpet"},
    "minecraft:cyan_carpet": {"name": "Cyan Carpet"},
    "minecraft:purple_carpet": {"name": "Purple Carpet"},
    "minecraft:blue_carpet": {"name": "Blue Carpet"},
    "minecraft:brown_carpet": {"name": "Brown Carpet"},
    "minecraft:green_carpet": {"name": "Green Carpet"},
    "minecraft:red_carpet": {"name": "Red Carpet"},
    "minecraft:black_carpet": {"name": "Black Carpet"},
    "minecraft:terracotta": {"name": "Terracotta"},
    "minecraft:coal_block": {"name": "Block of Coal"},
    "minecraft:packed_ice": {"name": "Packed Ice"},
    "minecraft:acacia_stairs": {"name": "Acacia Stairs"},
    "minecraft:dark_oak_stairs": {"name": "Dark Oak Stairs"},
    "minecraft:slime_block": {"name": "Slime Block"},
    "minecraft:grass_path": {"name": "Grass Path"},
    "minecraft:sunflower": {"name": "Sunflower"},
    "minecraft:lilac": {"name": "Lilac"},
    "minecraft:rose_bush": {"name": "Rose Bush"},
    "minecraft:peony": {"name": "Peony"},
    "minecraft:tall_grass": {"name": "Tall Grass"},
    "minecraft:large_fern": {"name": "Large Fern"},
    "minecraft:white_stained_glass": {"name": "White Stained Glass"},
    "minecraft:orange_stained_glass": {"name": "Orange Stained Glass"},
    "minecraft:magenta_stained_glass": {"name": "Magenta Stained Glass"},
    "minecraft:light_blue_stained_glass": {"name": "Light Blue Stained Glass"},
    "minecraft:yellow_stained_glass": {"name": "Yellow Stained Glass"},
    "minecraft:lime_stained_glass": {"name": "Lime Stained Glass"},
    "minecraft:pink_stained_glass": {"name": "Pink Stained Glass"},
    "minecraft:gray_stained_glass": {"name": "Gray Stained Glass"},
    "minecraft:light_gray_stained_glass": {"name": "Light Gray Stained Glass"},
    "minecraft:cyan_stained_glass": {"name": "Cyan Stained Glass"},
    "minecraft:purple_stained_glass": {"name": "Purple Stained Glass"},
    "minecraft:blue_stained_glass": {"name": "Blue Stained Glass"},
    "minecraft:brown_stained_glass": {"name": "Brown Stained Glass"},
    "minecraft:green_stained_glass": {"name": "Green Stained Glass"},
    "minecraft:red_stained_glass": {"name": "Red Stained Glass"},
    "minecraft:black_stained_glass": {"name": "Black Stained Glass"},
    "minecraft:white_stained_glass_pane": {"name": "White Stained Glass Pane"},
    "minecraft:orange_stained_glass_pane": {"name": "Orange Stained Glass Pane"},
    "minecraft:magenta_stained_glass_pane": {"name": "Magenta Stained Glass Pane"},
    "minecraft:light_blue_stained_glass_pane": {"name": "Light Blue Stained Glass Pane"},
    "minecraft:yellow_stained_glass_pane": {"name": "Yellow Stained Glass Pane"},
    "minecraft:lime_stained_glass_pane": {"name": "Lime Stained Glass Pane"},
    "minecraft:pink_stained_glass_pane": {"name": "Pink Stained Glass Pane"},
    "minecraft:gray_stained_glass_pane": {"name": "Gray Stained Glass Pane"},
    "minecraft:light_gray_stained_glass_pane": {"name": "Light Gray Stained Glass Pane"},
    "minecraft:cyan_stained_glass_pane": {"name": "Cyan Stained Glass Pane"},
    "minecraft:purple_stained_glass_pane": {"name": "Purple Stained Glass Pane"},
    "minecraft:blue_stained_glass_pane": {"name": "Blue Stained Glass Pane"},
    "minecraft:brown_stained_glass_pane": {"name": "Brown Stained Glass Pane"},
    "minecraft:green_stained_glass_pane": {"name": "Green Stained Glass Pane"},
    "minecraft:red_stained_glass_pane": {"name": "Red Stained Glass Pane"},
    "minecraft:black_stained_glass_pane": {"name": "Black Stained Glass Pane"},
    "minecraft:prismarine": {"name": "Prismarine"},
    "minecraft:prismarine_bricks": {"name": "Prismarine Bricks"},
    "minecraft:dark_prismarine": {"name": "Dark Prismarine"},
    "minecraft:prismarine_stairs": {"name": "Prismarine Stairs"},
    "minecraft:prismarine_brick_stairs": {"name": "Prismarine Brick Stairs"},
    "minecraft:dark_prismarine_stairs": {"name": "Dark Prismarine Stairs"},
    "minecraft:sea_lantern": {"name": "Sea Lantern"},
    "minecraft:red_sandstone": {"name": "Red Sandstone"},
    "minecraft:chiseled_red_sandstone": {"name": "Chiseled Red Sandstone"},
    "minecraft:cut_red_sandstone": {"name": "Cut Red Sandstone"},
    "minecraft:red_sandstone_stairs": {"name": "Red Sandstone Stairs"},
    "minecraft:magma_block": {"name": "Magma Block"},
    "minecraft:nether_wart_block": {"name": "Nether Wart Block"},
    "minecraft:red_nether_bricks": {"name": "Red Nether Bricks"},
    "minecraft:bone_block": {"name": "Bone Block"},
    "minecraft:observer": {"name": "Observer"},
    "minecraft:shulker_box": {"name": "Shulker Box"},
    "minecraft:white_shulker_box": {"name": "White Shulker Box"},
    "minecraft:orange_shulker_box": {"name": "Orange Shulker Box"},
    "minecraft:magenta_shulker_box": {"name": "Magenta Shulker Box"},
    "minecraft:light_blue_shulker_box": {"name": "Light Blue Shulker Box"},
    "minecraft:yellow_shulker_box": {"name": "Yellow Shulker Box"},
    "minecraft:lime_shulker_box": {"name": "Lime Shulker Box"},
    "minecraft:pink_shulker_box": {"name": "Pink Shulker Box"},
    "minecraft:gray_shulker_box": {"name": "Gray Shulker Box"},
    "minecraft:light_gray_shulker_box": {"name": "Light Gray Shulker Box"},
    "minecraft:cyan_shulker_box": {"name": "Cyan Shulker Box"},
    "minecraft:purple_shulker_box": {"name": "Purple Shulker Box"},
    "minecraft:blue_shulker_box": {"name": "Blue Shulker Box"},
    "minecraft:brown_shulker_box": {"name": "Brown Shulker Box"},
    "minecraft:green_shulker_box": {"name": "Green Shulker Box"},
    "minecraft:red_shulker_box": {"name": "Red Shulker Box"},
    "minecraft:black_shulker_box": {"name": "Black Shulker Box"},
    "minecraft:white_glazed_terracotta": {"name": "White Glazed Terracotta"},
    "minecraft:orange_glazed_terracotta": {"name": "Orange Glazed Terracotta"},
    "minecraft:magenta_glazed_terracotta": {"name": "Magenta Glazed Terracotta"},
    "minecraft:light_blue_glazed_terracotta": {"name": "Light Blue Glazed Terracotta"},
    "minecraft:yellow_glazed_terracotta": {"name": "Yellow Glazed Terracotta"},
    "minecraft:lime_glazed_terracotta": {"name": "Lime Glazed Terracotta"},
    "minecraft:pink_glazed_terracotta": {"name": "Pink Glazed Terracotta"},
    "minecraft:gray_glazed_terracotta": {"name": "Gray Glazed Terracotta"},
    "minecraft:light_gray_glazed_terracotta": {"name": "Light Gray Glazed Terracotta"},
    "minecraft:cyan_glazed_terracotta": {"name": "Cyan Glazed Terracotta"},
    "minecraft:purple_glazed_terracotta": {"name": "Purple Glazed Terracotta"},
    "minecraft:blue_glazed_terracotta": {"name": "Blue Glazed Terracotta"},
    "minecraft:brown_glazed_terracotta": {"name": "Brown Glazed Terracotta"},
    "minecraft:green_glazed_terracotta": {"name": "Green Glazed Terracotta"},
    "minecraft:red_glazed_terracotta": {"name": "Red Glazed Terracotta"},
    "minecraft:black_glazed_terracotta": {"name": "Black Glazed Terracotta"},
    "minecraft:white_concrete": {"name": "White Concrete"},
    "minecraft:orange_concrete": {"name": "Orange Concrete"},
    "minecraft:magenta_concrete": {"name": "Magenta Concrete"},
    "minecraft:light_blue_concrete": {"name": "Light Blue Concrete"},
    "minecraft:yellow_concrete": {"name": "Yellow Concrete"},
    "minecraft:lime_concrete": {"name": "Lime Concrete"},
    "minecraft:pink_concrete": {"name": "Pink Concrete"},
    "minecraft:gray_concrete": {"name": "Gray Concrete"},
    "minecraft:light_gray_concrete": {"name": "Light Gray Concrete"},
    "minecraft:cyan_concrete": {"name": "Cyan Concrete"},
    "minecraft:purple_concrete": {"name": "Purple Concrete"},
    "minecraft:blue_concrete": {"name": "Blue Concrete"},
    "minecraft:brown_concrete": {"name": "Brown Concrete"},
    "minecraft:green_concrete": {"name": "Green Concrete"},
    "minecraft:red_concrete": {"name": "Red Concrete"},
    "minecraft:black_concrete": {"name": "Black Concrete"},
    "minecraft:white_concrete_powder": {"name": "White Concrete Powder"},
    "minecraft:orange_concrete_powder": {"name": "Orange Concrete Powder"},
    "minecraft:magenta_concrete_powder": {"name": "Magenta Concrete Powder"},
    "minecraft:light_blue_concrete_powder": {"name": "Light Blue Concrete Powder"},
    "minecraft:yellow_concrete_powder": {"name": "Yellow Concrete Powder"},
    "minecraft:lime_concrete_powder": {"name": "Lime Concrete Powder"},
    "minecraft:pink_concrete_powder": {"name": "Pink Concrete Powder"},
    "minecraft:gray_concrete_powder": {"name": "Gray Concrete Powder"},
    "minecraft:light_gray_concrete_powder": {"name": "Light Gray Concrete Powder"},
    "minecraft:cyan_concrete_powder": {"name": "Cyan Concrete Powder"},
    "minecraft:purple_concrete_powder": {"name": "Purple Concrete Powder"},
    "minecraft:blue_concrete_powder": {"name": "Blue Concrete Powder"},
    "minecraft:brown_concrete_powder": {"name": "Brown Concrete Powder"},
    "minecraft:green_concrete_powder": {"name": "Green Concrete Powder"},
    "minecraft:red_concrete_powder": {"name": "Red Concrete Powder"},
    "minecraft:black_concrete_powder": {"name": "Black Concrete Powder"},
    "minecraft:turtle_egg": {"name": "Turtle Egg"},
    "minecraft:dead_tube_coral_block": {"name": "Dead Tube Coral Block"},
    "minecraft:dead_brain_coral_block": {"name": "Dead Brain Coral Block"},
    "minecraft:dead_bubble_coral_block": {"name": "Dead Bubble Coral Block"},
    "minecraft:dead_fire_coral_block": {"name": "Dead Fire Coral Block"},
    "minecraft:dead_horn_coral_block": {"name": "Dead Horn Coral Block"},
    "minecraft:tube_coral_block": {"name": "Tube Coral Block"},
    "minecraft:brain_coral_block": {"name": "Brain Coral Block"},
    "minecraft:bubble_coral_block": {"name": "Bubble Coral Block"},
    "minecraft:fire_coral_block": {"name": "Fire Coral Block"},
    "minecraft:horn_coral_block": {"name": "Horn Coral Block"},
    "minecraft:tube_coral": {"name": "Tube Coral"},
    "minecraft:brain_coral": {"name": "Brain Coral"},
    "minecraft:bubble_coral": {"name": "Bubble Coral"},
    "minecraft:fire_coral": {"name": "Fire Coral"},
    "minecraft:horn_coral": {"name": "Horn Coral"},
    "minecraft:dead_tube_coral": {"name": "Dead Tube Coral"},
    "minecraft:dead_brain_coral": {"name": "Dead Brain Coral"},
    "minecraft:dead_bubble_coral": {"name": "Dead Bubble Coral"},
    "minecraft:dead_fire_coral": {"name": "Dead Fire Coral"},
    "minecraft:dead_horn_coral": {"name": "Dead Horn Coral"},
    "minecraft:tube_coral_fan": {"name": "Tube Coral Fan"},
    "minecraft:brain_coral_fan": {"name": "Brain Coral Fan"},
    "minecraft:bubble_coral_fan": {"name": "Bubble Coral Fan"},
    "minecraft:fire_coral_fan": {"name": "Fire Coral Fan"},
    "minecraft:horn_coral_fan": {"name": "Horn Coral Fan"},
    "minecraft:dead_tube_coral_fan": {"name": "Dead Tube Coral Fan"},
    "minecraft:dead_brain_coral_fan": {"name": "Dead Brain Coral Fan"},
    "minecraft:dead_bubble_coral_fan": {"name": "Dead Bubble Coral Fan"},
    "minecraft:dead_fire_coral_fan": {"name": "Dead Fire Coral Fan"},
    "minecraft:dead_horn_coral_fan": {"name": "Dead Horn Coral Fan"},
    "minecraft:blue_ice": {"name": "Blue Ice"},
    "minecraft:conduit": {"name": "Conduit"},
    "minecraft:polished_granite_stairs": {"name": "Polished Granite Stairs"},
    "minecraft:smooth_red_sandstone_stairs": {"name": "Smooth Red Sandstone Stairs"},
    "minecraft:mossy_stone_brick_stairs": {"name": "Mossy Stone Brick Stairs"},
    "minecraft:polished_diorite_stairs": {"name": "Polished Diorite Stairs"},
    "minecraft:mossy_cobblestone_stairs": {"name": "Mossy Cobblestone Stairs"},
    "minecraft:end_stone_brick_stairs": {"name": "End Stone Brick Stairs"},
    "minecraft:stone_stairs": {"name": "Stone Stairs"},
    "minecraft:smooth_sandstone_stairs": {"name": "Smooth Sandstone Stairs"},
    "minecraft:smooth_quartz_stairs": {"name": "Smooth Quartz Stairs"},
    "minecraft:granite_stairs": {"name": "Granite Stairs"},
    "minecraft:andesite_stairs": {"name": "Andesite Stairs"},
    "minecraft:red_nether_brick_stairs": {"name": "Red Nether Brick Stairs"},
    "minecraft:polished_andesite_stairs": {"name": "Polished Andesite Stairs"},
    "minecraft:diorite_stairs": {"name": "Diorite Stairs"},
    "minecraft:polished_granite_slab": {"name": "Polished Granite Slab"},
    "minecraft:smooth_red_sandstone_slab": {"name": "Smooth Red Sandstone Slab"},
    "minecraft:mossy_stone_brick_slab": {"name": "Mossy Stone Brick Slab"},
    "minecraft:polished_diorite_slab": {"name": "Polished Diorite Slab"},
    "minecraft:mossy_cobblestone_slab": {"name": "Mossy Cobblestone Slab"},
    "minecraft:end_stone_brick_slab": {"name": "End Stone Brick Slab"},
    "minecraft:smooth_sandstone_slab": {"name": "Smooth Sandstone Slab"},
    "minecraft:smooth_quartz_slab": {"name": "Smooth Quartz Slab"},
    "minecraft:granite_slab": {"name": "Granite Slab"},
    "minecraft:andesite_slab": {"name": "Andesite Slab"},
    "minecraft:red_nether_brick_slab": {"name": "Red Nether Brick Slab"},
    "minecraft:polished_andesite_slab": {"name": "Polished Andesite Slab"},
    "minecraft:diorite_slab": {"name": "Diorite Slab"},
    "minecraft:scaffolding": {"name": "Scaffolding"},
    "minecraft:iron_door": {"name": "Iron Door"},
    "minecraft:oak_door": {"name": "Oak Door"},
    "minecraft:spruce_door": {"name": "Spruce Door"},
    "minecraft:birch_door": {"name": "Birch Door"},
    "minecraft:jungle_door": {"name": "Jungle Door"},
    "minecraft:acacia_door": {"name": "Acacia Door"},
    "minecraft:dark_oak_door": {"name": "Dark Oak Door"},
    "minecraft:repeater": {"name": "Redstone Repeater"},
    "minecraft:comparator": {"name": "Redstone Comparator"},
    "minecraft:composter": {"name": "Composter"},
    "minecraft:turtle_helmet": {"name": "Turtle Shell"},
    "minecraft:scute": {"name": "Scute"},
    "minecraft:iron_shovel": {"name": "Iron Shovel"},
    "minecraft:iron_pickaxe": {"name": "Iron Pickaxe"},
    "minecraft:iron_axe": {"name": "Iron Axe"},
    "minecraft:flint_and_steel": {"name": "Flint and Steel"},
    "minecraft:apple": {"name": "Apple"},
    "minecraft:bow": {"name": "Bow"},
    "minecraft:arrow": {"name": "Arrow"},
    "minecraft:coal": {"name": "Coal"},
    "minecraft:charcoal": {"name": "Charcoal"},
    "minecraft:diamond": {"name": "Diamond"},
    "minecraft:iron_ingot": {"name": "Iron Ingot"},
    "minecraft:gold_ingot": {"name": "Gold Ingot"},
    "minecraft:iron_sword": {"name": "Iron Sword"},
    "minecraft:wooden_sword": {"name": "Wooden Sword"},
    "minecraft:wooden_shovel": {"name": "Wooden Shovel"},
    "minecraft:wooden_pickaxe": {"name": "Wooden Pickaxe"},
    "minecraft:wooden_axe": {"name": "Wooden Axe"},
    "minecraft:stone_sword": {"name": "Stone Sword"},
    "minecraft:stone_shovel": {"name": "Stone Shovel"},
    "minecraft:stone_pickaxe": {"name": "Stone Pickaxe"},
    "minecraft:stone_axe": {"name": "Stone Axe"},
    "minecraft:diamond_sword": {"name": "Diamond Sword"},
    "minecraft:diamond_shovel": {"name": "Diamond Shovel"},
    "minecraft:diamond_pickaxe": {"name": "Diamond Pickaxe"},
    "minecraft:diamond_axe": {"name": "Diamond Axe"},
    "minecraft:stick": {"name": "Stick"},
    "minecraft:bowl": {"name": "Bowl"},
    "minecraft:mushroom_stew": {"name": "Mushroom Soup"},
    "minecraft:golden_sword": {"name": "Golden Sword"},
    "minecraft:golden_shovel": {"name": "Golden Shovel"},
    "minecraft:golden_pickaxe": {"name": "Golden Pickaxe"},
    "minecraft:golden_axe": {"name": "Golden Axe"},
    "minecraft:string": {"name": "String"},
    "minecraft:feather": {"name": "Feather"},
    "minecraft:gunpowder": {"name": "Gunpowder"},
    "minecraft:wooden_hoe": {"name": "Wooden Hoe"},
    "minecraft:stone_hoe": {"name": "Stone Hoe"},
    "minecraft:iron_hoe": {"name": "Iron Hoe"},
    "minecraft:diamond_hoe": {"name": "Diamond Hoe"},
    "minecraft:golden_hoe": {"name": "Golden Hoe"},
    "minecraft:wheat_seeds": {"name": "Wheat Seeds"},
    "minecraft:wheat": {"name": "Wheat"},
    "minecraft:bread": {"name": "Bread"},
    "minecraft:leather_helmet": {"name": "Leather Hat"},
    "minecraft:leather_chestplate": {"name": "Leather Tunic"},
    "minecraft:leather_leggings": {"name": "Leather Trousers"},
    "minecraft:leather_boots": {"name": "Leather Boots"},
    "minecraft:chainmail_helmet": {"name": "Chainmail Helmet"},
    "minecraft:chainmail_chestplate": {"name": "Chainmail Chestplate"},
    "minecraft:chainmail_leggings": {"name": "Chainmail Leggings"},
    "minecraft:chainmail_boots": {"name": "Chainmail Boots"},
    "minecraft:iron_helmet": {"name": "Iron Helmet"},
    "minecraft:iron_chestplate": {"name": "Iron Chestplate"},
    "minecraft:iron_leggings": {"name": "Iron Leggings"},
    "minecraft:iron_boots": {"name": "Iron Boots"},
    "minecraft:diamond_helmet": {"name": "Diamond Helmet"},
    "minecraft:diamond_chestplate": {"name": "Diamond Chestplate"},
    "minecraft:diamond_leggings": {"name": "Diamond Leggings"},
    "minecraft:diamond_boots": {"name": "Diamond Boots"},
    "minecraft:golden_helmet": {"name": "Golden Helmet"},
    "minecraft:golden_chestplate": {"name": "Golden Chestplate"},
    "minecraft:golden_leggings": {"name": "Golden Leggings"},
    "minecraft:golden_boots": {"name": "Golden Boots"},
    "minecraft:flint": {"name": "Flint"},
    "minecraft:porkchop": {"name": "Raw Porkchop"},
    "minecraft:cooked_porkchop": {"name": "Cooked Porkchop"},
    "minecraft:painting": {"name": "Painting"},
    "minecraft:golden_apple": {"name": "Golden Apple"},
    "minecraft:enchanted_golden_apple": {"name": "Enchanted Golden Apple"},
    "minecraft:oak_sign": {"name": "Oak Sign"},
    "minecraft:spruce_sign": {"name": "Spruce Sign"},
    "minecraft:birch_sign": {"name": "Birch Sign"},
    "minecraft:jungle_sign": {"name": "Jungle Sign"},
    "minecraft:acacia_sign": {"name": "Acacia Sign"},
    "minecraft:dark_oak_sign": {"name": "Dark Oak Sign"},
    "minecraft:bucket": {"name": "Bucket"},
    "minecraft:water_bucket": {"name": "Water Bucket"},
    "minecraft:lava_bucket": {"name": "Lava Bucket"},
    "minecraft:minecart": {"name": "Minecart"},
    "minecraft:saddle": {"name": "Saddle"},
    "minecraft:redstone": {"name": "Redstone Dust"},
    "minecraft:snowball": {"name": "Snowball"},
    "minecraft:oak_boat": {"name": "Oak Boat"},
    "minecraft:leather": {"name": "Leather"},
    "minecraft:milk_bucket": {"name": "Milk Bucket"},
    "minecraft:pufferfish_bucket": {"name": "Bucket of Pufferfish"},
    "minecraft:salmon_bucket": {"name": "Bucket of Salmon"},
    "minecraft:cod_bucket": {"name": "Bucket of Cod"},
    "minecraft:tropical_fish_bucket": {"name": "Bucket of Tropical Fish"},
    "minecraft:brick": {"name": "Brick"},
    "minecraft:clay_ball": {"name": "Clay"},
    "minecraft:sugar_cane": {"name": "Sugar Cane"},
    "minecraft:kelp": {"name": "Kelp"},
    "minecraft:dried_kelp_block": {"name": "Dried Kelp Block"},
    "minecraft:bamboo": {"name": "Bamboo"},
    "minecraft:paper": {"name": "Paper"},
    "minecraft:book": {"name": "Book"},
    "minecraft:slime_ball": {"name": "Slimeball"},
    "minecraft:chest_minecart": {"name": "Minecart with Chest"},
    "minecraft:furnace_minecart": {"name": "Minecart with Furnace"},
    "minecraft:egg": {"name": "Egg"},
    "minecraft:compass": {"name": "Compass"},
    "minecraft:fishing_rod": {"name": "Fishing Rod"},
    "minecraft:clock": {"name": "Clock"},
    "minecraft:glowstone_dust": {"name": "Glowstone Dust"},
    "minecraft:cod": {"name": "Raw Cod"},
    "minecraft:salmon": {"name": "Raw Salmon"},
    "minecraft:tropical_fish": {"name": "Tropical Fish"},
    "minecraft:pufferfish": {"name": "Pufferfish"},
    "minecraft:cooked_cod": {"name": "Cooked Cod"},
    "minecraft:cooked_salmon": {"name": "Cooked Salmon"},
    "minecraft:ink_sac": {"name": "Ink Sac"},
    "minecraft:red_dye": {"name": "Red Dye"},
    "minecraft:green_dye": {"name": "Green Dye"},
    "minecraft:cocoa_beans": {"name": "Cocoa Beans"},
    "minecraft:lapis_lazuli": {"name": "Lapis Lazuli"},
    "minecraft:purple_dye": {"name": "Purple Dye"},
    "minecraft:cyan_dye": {"name": "Cyan Dye"},
    "minecraft:light_gray_dye": {"name": "Light Gray Dye"},
    "minecraft:gray_dye": {"name": "Gray Dye"},
    "minecraft:pink_dye": {"name": "Pink Dye"},
    "minecraft:lime_dye": {"name": "Lime Dye"},
    "minecraft:yellow_dye": {"name": "Yellow Dye"},
    "minecraft:light_blue_dye": {"name": "Light Blue Dye"},
    "minecraft:magenta_dye": {"name": "Magenta Dye"},
    "minecraft:orange_dye": {"name": "Orange Dye"},
    "minecraft:bone_meal": {"name": "Bone Meal"},
    "minecraft:blue_dye": {"name": "Blue Dye"},
    "minecraft:brown_dye": {"name": "Brown Dye"},
    "minecraft:black_dye": {"name": "Black Dye"},
    "minecraft:white_dye": {"name": "White Dye"},
    "minecraft:bone": {"name": "Bone"},
    "minecraft:sugar": {"name": "Sugar"},
    "minecraft:cake": {"name": "Cake"},
    "minecraft:white_bed": {"name": "White Bed"},
    "minecraft:orange_bed": {"name": "Orange Bed"},
    "minecraft:magenta_bed": {"name": "Magenta Bed"},
    "minecraft:light_blue_bed": {"name": "Light Blue Bed"},
    "minecraft:yellow_bed": {"name": "Yellow Bed"},
    "minecraft:lime_bed": {"name": "Lime Bed"},
    "minecraft:pink_bed": {"name": "Pink Bed"},
    "minecraft:gray_bed": {"name": "Gray Bed"},
    "minecraft:light_gray_bed": {"name": "Light Gray Bed"},
    "minecraft:cyan_bed": {"name": "Cyan Bed"},
    "minecraft:purple_bed": {"name": "Purple Bed"},
    "minecraft:blue_bed": {"name": "Blue Bed"},
    "minecraft:brown_bed": {"name": "Brown Bed"},
    "minecraft:green_bed": {"name": "Green Bed"},
    "minecraft:red_bed": {"name": "Red Bed"},
    "minecraft:black_bed": {"name": "Black Bed"},
    "minecraft:cookie": {"name": "Cookie"},
    "minecraft:shears": {"name": "Shears"},
    "minecraft:melon_slice": {"name": "Melon Slice"},
    "minecraft:dried_kelp": {"name": "Dried Kelp"},
    "minecraft:pumpkin_seeds": {"name": "Pumpkin Seeds"},
    "minecraft:melon_seeds": {"name": "Melon Seeds"},
    "minecraft:beef": {"name": "Raw Beef"},
    "minecraft:cooked_beef": {"name": "Cooked Beef"},
    "minecraft:chicken": {"name": "Raw Chicken"},
    "minecraft:cooked_chicken": {"name": "Cooked Chicken"},
    "minecraft:rotten_flesh": {"name": "Rotten Flesh"},
    "minecraft:ender_pearl": {"name": "Ender Pearl"},
    "minecraft:blaze_rod": {"name": "Blaze Rod"},
    "minecraft:ghast_tear": {"name": "Ghast Tear"},
    "minecraft:gold_nugget": {"name": "Gold Nugget"},
    "minecraft:nether_wart": {"name": "Nether Wart"},
    
    "minecraft:potion": {"name": "Water Bottle"},
    
    "minecraft:glass_bottle": {"name": "Glass Bottle"},
    "minecraft:spider_eye": {"name": "Spider Eye"},
    "minecraft:fermented_spider_eye": {"name": "Fermented Spider Eye"},
    "minecraft:blaze_powder": {"name": "Blaze Powder"},
    "minecraft:magma_cream": {"name": "Magma Cream"},
    "minecraft:brewing_stand": {"name": "Brewing Stand"},
    "minecraft:cauldron": {"name": "Cauldron"},
    "minecraft:ender_eye": {"name": "Eye of Ender"},
    "minecraft:glistering_melon_slice": {"name": "Glistering Melon Slice"},
    
    "minecraft:bat_spawn_egg": {"name": "Bat Spawn Egg"},
    "minecraft:bee_spawn_egg": {"name": "Bee Spawn Egg"},
    "minecraft:blaze_spawn_egg": {"name": "Blaze Spawn Egg"},
    "minecraft:cat_spawn_egg": {"name": "Cat Spawn Egg"},
    "minecraft:cave_spider_spawn_egg": {"name": "Cave Spider Spawn Egg"},
    "minecraft:chicken_spawn_egg": {"name": "Chicken Spawn Egg"},
    "minecraft:cod_spawn_egg": {"name": "Cod Spawn Egg"},
    "minecraft:cow_spawn_egg": {"name": "Cow Spawn Egg"},
    "minecraft:creeper_spawn_egg": {"name": "Creeper Spawn Egg"},
    "minecraft:dolphin_spawn_egg": {"name": "Dolphin Spawn Egg"},
    "minecraft:donkey_spawn_egg": {"name": "Donkey Spawn Egg"},
    "minecraft:drowned_spawn_egg": {"name": "Drowned Spawn Egg"},
    "minecraft:elder_guardian_spawn_egg": {"name": "Elder Guardian Spawn Egg"},
    "minecraft:enderman_spawn_egg": {"name": "Enderman Spawn Egg"},
    "minecraft:endermite_spawn_egg": {"name": "Endermite Spawn Egg"},
    "minecraft:evoker_spawn_egg": {"name": "Evoker Spawn Egg"},
    "minecraft:fox_spawn_egg": {"name": "Fox Spawn Egg"},
    "minecraft:ghast_spawn_egg": {"name": "Ghast Spawn Egg"},
    "minecraft:guardian_spawn_egg": {"name": "Guardian Spawn Egg"},
    "minecraft:horse_spawn_egg": {"name": "Horse Spawn Egg"},
    "minecraft:husk_spawn_egg": {"name": "Husk Spawn Egg"},
    "minecraft:llama_spawn_egg": {"name": "Llama Spawn Egg"},
    "minecraft:magma_cube_spawn_egg": {"name": "Magma Cube Spawn Egg"},
    "minecraft:mooshroom_spawn_egg": {"name": "Mooshroom Spawn Egg"},
    "minecraft:mule_spawn_egg": {"name": "Mule Spawn Egg"},
    "minecraft:ocelot_spawn_egg": {"name": "Ocelot Spawn Egg"},
    "minecraft:panda_spawn_egg": {"name": "Panda Spawn Egg"},
    "minecraft:parrot_spawn_egg": {"name": "Parrot Spawn Egg"},
    "minecraft:phantom_spawn_egg": {"name": "Phantom Spawn Egg"},
    "minecraft:pig_spawn_egg": {"name": "Pig Spawn Egg"},
    "minecraft:pillager_spawn_egg": {"name": "Pillager Spawn Egg"},
    "minecraft:polar_bear_spawn_egg": {"name": "Polar Bear Spawn Egg"},
    "minecraft:pufferfish_spawn_egg": {"name": "Pufferfish Spawn Egg"},
    "minecraft:rabbit_spawn_egg": {"name": "Rabbit Spawn Egg"},
    "minecraft:ravager_spawn_egg": {"name": "Ravager Spawn Egg"},
    "minecraft:salmon_spawn_egg": {"name": "Salmon Spawn Egg"},
    "minecraft:sheep_spawn_egg": {"name": "Sheep Spawn Egg"},
    "minecraft:shulker_spawn_egg": {"name": "Shulker Spawn Egg"},
    "minecraft:silverfish_spawn_egg": {"name": "Silverfish Spawn Egg"},
    "minecraft:skeleton_spawn_egg": {"name": "Skeleton Spawn Egg"},
    "minecraft:skeleton_horse_spawn_egg": {"name": "Skeleton Horse Spawn Egg"},
    "minecraft:slime_spawn_egg": {"name": "Slime Spawn Egg"},
    "minecraft:spider_spawn_egg": {"name": "Spider Spawn Egg"},
    "minecraft:squid_spawn_egg": {"name": "Squid Spawn Egg"},
    "minecraft:stray_spawn_egg": {"name": "Stray Spawn Egg"},
    "minecraft:trader_llama_spawn_egg": {"name": "Trader Llama Spawn Egg"},
    "minecraft:tropical_fish_spawn_egg": {"name": "Tropical Fish Spawn Egg"},
    "minecraft:turtle_spawn_egg": {"name": "Turtle Spawn Egg"},
    "minecraft:vex_spawn_egg": {"name": "Vex Spawn Egg"},
    "minecraft:villager_spawn_egg": {"name": "Villager Spawn Egg"},
    "minecraft:vindicator_spawn_egg": {"name": "Vindicator Spawn Egg"},
    "minecraft:wandering_trader_spawn_egg": {"name": "Wandering Trader Spawn Egg"},
    "minecraft:witch_spawn_egg": {"name": "Witch Spawn Egg"},
    "minecraft:wither_skeleton_spawn_egg": {"name": "Wither Skeleton Spawn Egg"},
    "minecraft:wolf_spawn_egg": {"name": "Wolf Spawn Egg"},
    "minecraft:zombie_spawn_egg": {"name": "Zombie Spawn Egg"},
    "minecraft:zombie_horse_spawn_egg": {"name": "Zombie Horse Spawn Egg"},
    "minecraft:zombie_pigman_spawn_egg": {"name": "Zombie Pigman Spawn Egg"},
    "minecraft:zombie_villager_spawn_egg": {"name": "Zombie Villager Spawn Egg"},
    
    "minecraft:experience_bottle": {"name": "Bottle o' Enchanting"},
    "minecraft:fire_charge": {"name": "Fire Charge"},
    "minecraft:writable_book": {"name": "Book and Quill"},
    "minecraft:emerald": {"name": "Emerald"},
    "minecraft:item_frame": {"name": "Item Frame"},
    "minecraft:flower_pot": {"name": "Flower Pot"},
    "minecraft:carrot": {"name": "Carrot"},
    "minecraft:potato": {"name": "Potato"},
    "minecraft:baked_potato": {"name": "Baked Potato"},
    "minecraft:poisonus_potato": {"name": "Poisonous Potato"},
    "minecraft:map": {"name": "Empty Map"},
    "minecraft:golden_carrot": {"name": "Golden Carrot"},
    "minecraft:skeleton_skull": {"name": "Skeleton Skull"},
    "minecraft:wither_skeleton_skull": {"name": "Wither Skeleton Skull"},
    "minecraft:zombie_head": {"name": "Zombie Head"},
    "minecraft:player_head": {"name": "Player Head"},
    "minecraft:creeper_head": {"name": "Creeper Head"},
    "minecraft:dragon_head": {"name": "Dragon Head"},
    "minecraft:carrot_on_a_stick": {"name": "Carrot on a Stick"},
    "minecraft:nether_star": {"name": "Nether Star"},
    "minecraft:pumpkin_pie": {"name": "Pumpkin Pie"},
    "minecraft:firework_rocket": {"name": "Firework Rocket"},
    "minecraft:firework_star": {"name": "Firework Star"},
    "minecraft:enchanted_book": {"name": "Enchanted Book"},
    "minecraft:nether_brick": {"name": "Nether Brick"},
    "minecraft:quartz": {"name": "Nether Quartz"},
    "minecraft:tnt_minecart": {"name": "Minecart with TNT"},
    "minecraft:hopper_minecart": {"name": "Minecart with Hopper"},
    "minecraft:prismarine_shard": {"name": "Prismarine Shard"},
    "minecraft:prismarine_crystals": {"name": "Prismarine Crystals"},
    "minecraft:rabbit": {"name": "Raw Rabbit"},
    "minecraft:cooked_rabbit": {"name": "Cooked Rabbit"},
    "minecraft:rabbit_stew": {"name": "Rabbit Stew"},
    "minecraft:rabbit_foot": {"name": "Rabbit's Foot"},
    "minecraft:rabbit_hide": {"name": "Rabbit Hide"},
    "minecraft:armor_stand": {"name": "Armor Stand"},
    "minecraft:iron_horse_armor": {"name": "Iron Horse Armor"},
    "minecraft:golden_horse_armor": {"name": "Golden Horse Armor"},
    "minecraft:diamond_horse_armor": {"name": "Diamond Horse Armor"},
    "minecraft:leather_horse_armor": {"name": "Leather Horse Armor"},
    "minecraft:lead": {"name": "Lead"},
    "minecraft:name_tag": {"name": "Name Tag"},
    "minecraft:mutton": {"name": "Raw Mutton"},
    "minecraft:cooked_mutton": {"name": "Cooked Mutton"},
    "minecraft:white_banner": {"name": "White Banner"},
    "minecraft:orange_banner": {"name": "Orange Banner"},
    "minecraft:magenta_banner": {"name": "Magenta Banner"},
    "minecraft:light_blue_banner": {"name": "Light Blue Banner"},
    "minecraft:yellow_banner": {"name": "Yellow Banner"},
    "minecraft:lime_banner": {"name": "Lime Banner"},
    "minecraft:pink_banner": {"name": "Pink Banner"},
    "minecraft:gray_banner": {"name": "Grey Banner"},
    "minecraft:light_gray_banner": {"name": "Light Grey Banner"},
    "minecraft:cyan_banner": {"name": "Cyan Banner"},
    "minecraft:purple_banner": {"name": "Purple Banner"},
    "minecraft:blue_banner": {"name": "Blue Banner"},
    "minecraft:brown_banner": {"name": "Brown Banner"},
    "minecraft:green_banner": {"name": "Green Banner"},
    "minecraft:red_banner": {"name": "Red Banner"},
    "minecraft:black_banner": {"name": "Black Banner"},
    "minecraft:end_crystal": {"name": "End Crystal"},
    "minecraft:chorus_fruit": {"name": "Chorus Fruit"},
    "minecraft:popped_chorus_fruit": {"name": "Popped Chorus Fruit"},
    "minecraft:beetroot": {"name": "Beetroot"},
    "minecraft:beetroot_seeds": {"name": "Beetroot Seeds"},
    "minecraft:beetroot_soup": {"name": "Beetroot Soup"},
    "minecraft:dragon_breath": {"name": "Dragon's Breath"},
    
    "minecraft:splash_potion": {"name": "Splash Water Bottle"},
    
    "minecraft:spectral_arrow": {"name": "Spectral Arrow"},
    
    "minecraft:tipped_arrow": {"name": "Tipped Arrow"},
    "minecraft:lingering_potion": {"name": "Lingering Water Bottle"},
    
    "minecraft:shield": {"name": "Shield"},
    "minecraft:elytra": {"name": "Elytra"},
    "minecraft:spruce_boat": {"name": "Spruce Boat"},
    "minecraft:birch_boat": {"name": "Birch Boat"},
    "minecraft:jungle_boat": {"name": "Jungle Boat"},
    "minecraft:acacia_boat": {"name": "Acacia Boat"},
    "minecraft:dark_oak_boat": {"name": "Dark Oak Boat"},
    "minecraft:totem_of_undying": {"name": "Totem of Undying"},
    "minecraft:shulker_shell": {"name": "Shulker Shell"},
    "minecraft:iron_nugget": {"name": "Iron Nugget"},
    "minecraft:music_disc_13": {"name": "Music Disc"},
    "minecraft:music_disc_cat": {"name": "Music Disc"},
    "minecraft:music_disc_blocks": {"name": "Music Disc"},
    "minecraft:music_disc_chirp": {"name": "Music Disc"},
    "minecraft:music_disc_far": {"name": "Music Disc"},
    "minecraft:music_disc_mall": {"name": "Music Disc"},
    "minecraft:music_disc_mellohi": {"name": "Music Disc"},
    "minecraft:music_disc_stal": {"name": "Music Disc"},
    "minecraft:music_disc_strad": {"name": "Music Disc"},
    "minecraft:music_disc_ward": {"name": "Music Disc"},
    "minecraft:music_disc_11": {"name": "Music Disc"},
    "minecraft:music_disc_wait": {"name": "Music Disc"},
    "minecraft:trident": {"name": "Trident"},
    "minecraft:phantom_membrane": {"name": "Phantom Membrane"},
    "minecraft:nautilus_shell": {"name": "Nautilus Shell"},
    "minecraft:heart_of_the_sea": {"name": "Heart of the Sea"},
    "minecraft:crossbow": {"name": "Crossbow"},
    "minecraft:loom": {"name": "Loom"},
    "minecraft:flower_banner_pattern": {"name": "Banner Pattern"},
    "minecraft:creeper_banner_pattern": {"name": "Banner Pattern"},
    "minecraft:skull_banner_pattern": {"name": "Banner Pattern"},
    "minecraft:mojang_banner_pattern": {"name": "Banner Pattern"},
    "minecraft:globe_banner_pattern": {"name": "Banner Pattern"},
    "minecraft:barrel": {"name": "Barrel"},
    "minecraft:smoker": {"name": "Smoker"},
    "minecraft:blast_furnace": {"name": "Blast Furnace"},
    "minecraft:cartography_table": {"name": "Cartography Table"},
    "minecraft:fletching_table": {"name": "Fletching Table"},
    "minecraft:grindstone": {"name": "Grindstone"},
    "minecraft:lectern": {"name": "Lectern"},
    "minecraft:smithing_table": {"name": "Smithing Table"},
    "minecraft:stonecutter": {"name": "Stonecutter"},
    "minecraft:bell": {"name": "Bell"},
    "minecraft:lantern": {"name": "Lantern"},
    "minecraft:sweet_berries": {"name": "Sweet Berries"},
    "minecraft:campfire": {"name": "Campfire"},
    "minecraft:honeycomb": {"name": "Honeycomb"},
    "minecraft:bee_nest": {"name": "Bee Nest"},
    "minecraft:beehive": {"name": "Beehive"},
    "minecraft:honey_bottle": {"name": "Honey Bottle"},
    "minecraft:honey_block": {"name": "Honey Block"},
    "minecraft:honeycomb_block": {"name": "Honeycomb Block"},
    
    
    
    "minecraft:chain_command_block": {"name": "Chain Command Block"},
    "minecraft:command_block": {"name": "Impulse Command Block"},
    "minecraft:knowledge_book": {"name": "Knowledge Book"},
    "minecraft:repeating_command_block": {"name": "Repeating Command Block"},
    "minecraft:structure_block": {"name": "Structure Block"},
    "minecraft:structure_void": {"name": "Structure Void"},
    "minecraft:written_book": {"name": "Written Book"}
}