{
    "minecraft:ancient_debris": {"name": "Ancient Debris"},
    "minecraft:basalt": {"name": "Basalt"},
    "minecraft:polished_basalt": {"name": "Polished Basalt"},
    "minecraft:blackstone": {"name": "Blackstone"},
    "minecraft:blackstone_slab": {"name": "Blackstone Slab"},
    "minecraft:blackstone_stairs": {"name": "Blackstone Stairs"},
    "minecraft:blackstone_wall": {"name": "Blackstone Wall"},
    "minecraft:polished_blackstone": {"name": "Polished Blackstone"},
    "minecraft:polished_blackstone_slab": {"name": "Polished Blackstone Slab"},
    "minecraft:polished_blackstone_stairs": {"name": "Polished Blackstone Stairs"},
    "minecraft:polished_blackstone_wall": {"name": "Polished Blackstone Wall"},
    "minecraft:polished_blackstone_bricks": {"name": "Polished Blackstone Bricks"},
    "minecraft:polished_blackstone_brick_slab": {"name": "Polished Blackstone Brick Slab"},
    "minecraft:polished_blackstone_brick_stairs": {"name": "Polished Blackstone Brick Stairs"},
    "minecraft:polished_blackstone_brick_wall": {"name": "Polished Blackstone Brick Wall"},
    "minecraft:polished_blackstone_button": {"name": "Polished Blackstone Button"},
    "minecraft:polished_blackstone_pressure_plate": {"name": "Polished Blackstone Pressure Plate"},
    "minecraft:chiseled_polished_blackstone": {"name": "Chiseled Polished Blackstone"},
    "minecraft:cracked_polished_blackstone_bricks": {"name": "Cracked Polished Blackstone Bricks"},
    "minecraft:gilded_blackstone": {"name": "Gilded Blackstone"},
    "minecraft:netherite_block": {"name": "Block of Netherite"},
    "minecraft:chain": {"name": "Chain"},
    "minecraft:chiseled_nether_bricks": {"name": "Chiseled Nether Bricks"},
    "minecraft:cracked_nether_bricks": {"name": "Cracked Nether Bricks"},
    "minecraft:crimson_fungus": {"name": "Crimson Fungus"},
    "minecraft:crimson_nylium": {"name": "Crimson Nylium"},
    "minecraft:crimson_planks": {"name": "Crimson Planks"},
    "minecraft:crimson_slab": {"name": "Crimson Slab"},
    "minecraft:crimson_stairs": {"name": "Crimson Stairs"},
    "minecraft:crimson_fence": {"name": "Crimson Fence"},
    "minecraft:crimson_fence_gate": {"name": "Crimson Fence Gate"},
    "minecraft:crimson_pressure_plate": {"name": "Crimson Pressure Plate"},
    "minecraft:crimson_button": {"name": "Crimson Button"},
    "minecraft:crimson_sign": {"name": "Crimson Sign"},
    "minecraft:crimson_door": {"name": "Crimson Door"},
    "minecraft:crimson_trapdoor": {"name": "Crimson Trapdoor"},
    "minecraft:crimson_roots": {"name": "Crimson Roots"},
    "minecraft:crimson_stem": {"name": "Crimson Stem"},
    "minecraft:crimson_hyphae": {"name": "Crimson Hyphae"},
    "minecraft:stripped_crimson_stem": {"name": "Stripped Crimson Stem"},
    "minecraft:stripped_crimson_hyphae": {"name": "Stripped Crimson Hyphae"},
    "minecraft:warped_fungus": {"name": "Warped Fungus"},
    "minecraft:warped_nylium": {"name": "Warped Nylium"},
    "minecraft:warped_planks": {"name": "Warped Planks"},
    "minecraft:warped_slab": {"name": "Warped Slab"},
    "minecraft:warped_stairs": {"name": "Warped Stairs"},
    "minecraft:warped_fence": {"name": "Warped Fence"},
    "minecraft:warped_fence_gate": {"name": "Warped Fence Gate"},
    "minecraft:warped_pressure_plate": {"name": "Warped Pressure Plate"},
    "minecraft:warped_button": {"name": "Warped Button"},
    "minecraft:warped_sign": {"name": "Warped Sign"},
    "minecraft:warped_door": {"name": "Warped Door"},
    "minecraft:warped_trapdoor": {"name": "Warped Trapdoor"},
    "minecraft:warped_roots": {"name": "Warped Roots"},
    "minecraft:warped_stem": {"name": "Warped Stem"},
    "minecraft:warped_hyphae": {"name": "Warped Hyphae"},
    "minecraft:stripped_warped_stem": {"name": "Stripped Warped Stem"},
    "minecraft:stripped_warped_hyphae": {"name": "Stripped Warped Hyphae"},
    "minecraft:crying_obsidian": {"name": "Crying Obsidian"},
    "minecraft:lodestone": {"name": "Lodestone"},
    "minecraft:nether_gold_ore": {"name": "Nether Gold Ore"},
    "minecraft:nether_sprouts": {"name": "Nether Sprouts"},
    "minecraft:quartz_bricks": {"name": "Quartz Bricks"},
    "minecraft:respawn_anchor": {"name": "Respawn Anchor"},
    "minecraft:shroomlight": {"name": "Shroomlight"},
    "minecraft:soul_campfire": {"name": "Soul Campfire"},
    "minecraft:soul_lantern": {"name": "Soul Lantern"},
    "minecraft:soul_torch": {"name": "Soul Torch"},
    "minecraft:soul_soil": {"name": "Soul Soil"},
    "minecraft:target": {"name": "Target"},
    "minecraft:twisting_vines": {"name": "Twisting Vines"},
    "minecraft:weeping_vines": {"name": "Weeping Vines"},
    "minecraft:warped_wart_block": {"name": "Warped Wart Block"},
    "minecraft:music_disc_wait": {"name": "Music Disc (Pigstep)"},
    "minecraft:netherite_helmet": {"name": "Netherite Helmet"},
    "minecraft:netherite_chestplate": {"name": "Netherite Chestplate"},
    "minecraft:netherite_leggings": {"name": "Netherite Leggings"},
    "minecraft:netherite_boots": {"name": "Netherite Boots"},
    "minecraft:netherite_sword": {"name": "Netherite Sword"},
    "minecraft:netherite_shovel": {"name": "Netherite Shovel"},
    "minecraft:netherite_pickaxe": {"name": "Netherite Pickaxe"},
    "minecraft:netherite_axe": {"name": "Netherite Axe"},
    "minecraft:netherite_hoe": {"name": "Netherite Hoe"},
    "minecraft:netherite_ingot": {"name": "Netherite Ingot"},
    "minecraft:netherite_scrap": {"name": "Netherite Scrap"},
    "minecraft:globe_banner_pattern": {"name": "Banner Pattern (Snout)"},
    "minecraft:hoglin_spawn_egg": {"name": "Hoglin Spawn Egg"},
    "minecraft:piglin_spawn_egg": {"name": "Piglin Spawn Egg"},
    "minecraft:strider_spawn_egg": {"name": "Strider Spawn Egg"},
    "minecraft:zoglin_spawn_egg": {"name": "Zoglin Spawn Egg"}
}