[
    {
        "name": "Digging and mining",
        "description": "Digging and mining blocks on the surface and underground with a shovel or a pickaxe",
        "icon": "icon/pickaxe",
        "results": [
            "minecraft:stone",
            "minecraft:cobblestone",
            "minecraft:dirt",
            "minecraft:sand",
            "minecraft:red_sand",
            "minecraft:gravel",
            "minecraft:gold_ore",
            "minecraft:iron_ore",
            "minecraft:coal_ore",
            "minecraft:lapis_ore",
            "minecraft:diamond_ore",
            "minecraft:redstone_ore",
            "minecraft:emerald_ore",
            "minecraft:netherrack",
            "minecraft:soul_sand",
            "minecraft:soul_soil",
            "minecraft:glowstone",
            "minecraft:nether_quartz_ore",
            "minecraft:nether_gold_ore",
            "minecraft:magma_block",
            "minecraft:end_stone"
        ],
        "dependencies": true
    },
    {
        "name": "Farming",
        "description": "Farming various plants",
        "icon": "icon/hoe",
        "results": [
            "minecraft:wheat_seeds",
            "minecraft:wheat",
            "minecraft:pumpkin",
            "minecraft:melon",
            "minecraft:nether_wart",
            "minecraft:carrot",
            "minecraft:potato",
            "minecraft:poisonous_potato",
            "minecraft:beetroot_seeds",
            "minecraft:beetroot",
            "minecraft:chorus_flower",
            "minecraft:chorus_fruit",
            "minecraft:sweet_berries",
            "minecraft:weeping_vines",
            "minecraft:twisting_vines",
            "minecraft:vine"
        ],
        "dependencies": null
    },
    {
        "name": "Looting",
        "description": "Finding loot in various structures",
        "icon": "item/minecraft/minecraft/chest",
        "results": [
            "minecraft:dragon_head",
            "minecraft:heart_of_the_sea",
            "minecraft:elytra",
            "minecraft:enchanted_golden_apple"
        ],
        "dependencies": true
    },
    {
        "name": "Bartering",
        "description": "Bartering with Piglins",
        "icon": "item/minecraft/minecraft/gold_ingot",
        "results": [
            "minecraft:enchanted_book",
            "minecraft:iron_boots",
            "minecraft:splash_potion",
            "minecraft:potion",
            {
                "item": "minecraft:iron_nugget",
                "count": 10
            },
            {
                "item": "minecraft:ender_pearl",
                "count": 2
            },
            {
                "item": "minecraft:string",
                "count": 3
            },
            {
                "item": "minecraft:quartz",
                "count": 5
            },
            {
                "item": "minecraft:obsidian",
                "count": 1
            },
            {
                "item": "minecraft:crying_obsidian",
                "count": 1
            },
            {
                "item": "minecraft:fire_charge",
                "count": 1
            },
            {
                "item": "minecraft:leather",
                "count": 2
            },
            {
                "item": "minecraft:soul_sand",
                "count": 2
            },
            {
                "item": "minecraft:nether_brick",
                "count": 2
            },
            {
                "item": "minecraft:spectral_arrow",
                "count": 6
            },
            {
                "item": "minecraft:gravel",
                "count": 8
            },
            {
                "item": "minecraft:blackstone",
                "count": 8
            }
        ],
        "dependencies": [
            "minecraft:gold_ingot"
        ]
    },
    {
        "name": "Stone Generator",
        "description": "Generating Stone or Cobblestone from a Stone Generator",
        "icon": "icon/lava",
        "results": [
            "minecraft:stone",
            "minecraft:cobblestone"
        ],
        "dependencies": null
    },
    {
        "name": "Spreading Grass",
        "description": "Natural spreading of Grass + Silk Touch Tool",
        "icon": "item/minecraft/grass",
        "dependencies": [
            "minecraft:dirt"
        ],
        "results": [
            "minecraft:grass_block"
        ]
    },
    {
        "name": "Spreading Mycelium",
        "description": "Natural spreading of Mycelium + Silk Touch Tool",
        "icon": "item/minecraft/mycelium",
        "dependencies": [
            "minecraft:dirt"
        ],
        "results": [
            "minecraft:mycelium"
        ]
    },
    {
        "name": "Spreading Crimson Nylium",
        "description": "Spreading Crimson Nylium with Bone Meal",
        "icon": "item/minecraft/crimson_nylium",
        "dependencies": [
            "minecraft:netherrack",
            "minecraft:bone_meal"
        ],
        "results": "minecraft:crimson_nylium"
    },
    {
        "name": "Spreading Warped Nylium",
        "description": "Spreading Warped Nylium with Bone Meal",
        "icon": "item/minecraft/warped_nylium",
        "dependencies": [
            "minecraft:netherrack",
            "minecraft:bone_meal"
        ],
        "results": "minecraft:warped_nylium"
    },
    {
        "name": "Using a Hoe",
        "description": "Using a Hoe on Coarse Dirt",
        "icon": "icon/hoe",
        "dependencies": [
            "minecraft:coarse_dirt"
        ],
        "results": [
            "minecraft:dirt"
        ]
    },
    {
        "name": "Cobblestone Generator",
        "description": "Generating Cobblestone from a Cobblestone Generator",
        "icon": "icon/lava",
        "results": [
            "minecraft:cobblestone"
        ],
        "dependencies": null
    },
    {
        "name": "Oak Trees",
        "description": "Growing Oak trees from a sapling",
        "icon": "item/minecraft/oak_sapling",
        "results": [
            "minecraft:oak_log",
            "minecraft:oak_leaves"
        ],
        "dependencies": null
    },
    {
        "name": "Spruce Trees",
        "description": "Growing Spruce trees from a sapling",
        "icon": "item/minecraft/spruce_sapling",
        "results": [
            "minecraft:spruce_log",
            "minecraft:spruce_leaves"
        ],
        "dependencies": null
    },
    {
        "name": "Birch Trees",
        "description": "Growing Birch trees from a sapling",
        "icon": "item/minecraft/birch_sapling",
        "results": [
            "minecraft:birch_log",
            "minecraft:birch_leaves"
        ],
        "dependencies": null
    },
    {
        "name": "Jungle Trees",
        "description": "Growing Jungle trees from a sapling",
        "icon": "item/minecraft/jungle_sapling",
        "results": [
            "minecraft:jungle_log",
            "minecraft:jungle_leaves"
        ],
        "dependencies": null
    },
    {
        "name": "Acacia Trees",
        "description": "Growing Acacia trees from a sapling",
        "icon": "item/minecraft/acacia_sapling",
        "results": [
            "minecraft:acacia_log",
            "minecraft:acacia_leaves"
        ],
        "dependencies": null
    },
    {
        "name": "Dark Oak Trees",
        "description": "Growing Dark Oak trees from a sapling",
        "icon": "item/minecraft/dark_oak_sapling",
        "results": [
            "minecraft:dark_oak_log",
            "minecraft:dark_oak_leaves"
        ],
        "dependencies": null
    },
    {
        "name": "Huge Crimson Fungi",
        "description": "Growing Huge Crimson Fungi from a Crimson Fungus",
        "icon": "item/minecraft/crimson_fungus",
        "results": [
            "minecraft:crimson_stem",
            "minecraft:nether_wart_block",
            "minecraft:shroomlight",
            "minecraft:weeping_vines"
        ],
        "dependencies": "minecraft:bone_meal"
    },
    {
        "name": "Huge Warped Fungi",
        "description": "Growing Huge Warped Fungi from a Warped Fungus",
        "icon": "item/minecraft/warped_fungus",
        "results": [
            "minecraft:warped_stem",
            "minecraft:warped_wart_block",
            "minecraft:shroomlight"
        ],
        "dependencies": "minecraft:bone_meal"
    },
    {
        "name": "Huge Brown Mushrooms",
        "description": "Growing huge brown mushrooms from small brown mushrooms",
        "icon": "item/minecraft/brown_mushroom_block",
        "results": [
            "minecraft:brown_mushroom_block",
            "minecraft:mushroom_stem"
        ],
        "dependencies": "minecraft:bone_meal"
    },
    {
        "name": "Huge Red Mushrooms",
        "description": "Growing huge red mushrooms from small red mushrooms",
        "icon": "item/minecraft/red_mushroom_block",
        "results": [
            "minecraft:red_mushroom_block",
            "minecraft:mushroom_stem"
        ],
        "dependencies": "minecraft:bone_meal"
    },
    {
        "name": "Large Spruce Trees",
        "description": "Getting podzol from growing large spruce trees",
        "icon": "item/minecraft/spruce_sapling",
        "dependencies": [
            "minecraft:dirt"
        ],
        "results": [
            "minecraft:podzol"
        ]
    },
    {
        "name": "Structures",
        "description": "Getting items from generated structures",
        "icon": "item/minecraft/cobweb",
        "results": [
            "minecraft:cobweb",
            "minecraft:gilded_blackstone"
        ],
        "dependencies": true
    },
    {
        "name": "Bone Mealing",
        "description": "Using Bone Meal on a Grass Block",
        "icon": "item/minecraft/bone_meal",
        "dependencies": [
            "minecraft:bone_meal"
        ],
        "results": [
            "minecraft:grass"
        ]
    },
    {
        "name": "Bone Mealing",
        "description": "Using Bone Meal on a Crimson or Warped Nylium",
        "icon": "item/minecraft/bone_meal",
        "dependencies": [
            "minecraft:bone_meal"
        ],
        "results": [
            "minecraft:crimson_roots",
            "minecraft:warped_roots",
            "minecraft:nether_sprouts",
            "minecraft:crimson_fungus",
            "minecraft:warped_fungus"
        ]
    },
    {
        "name": "Desert",
        "description": "Getting dead bushes using shears",
        "icon": "item/minecraft/dead_bush",
        "results": [
            "minecraft:dead_bush"
        ],
        "dependencies": true
    },
    {
        "name": "Cold biomes",
        "description": "Spreading ice with water on cold biomes",
        "icon": "item/minecraft/ice",
        "results": [
            "minecraft:ice"
        ],
        "dependencies": null
    },
    {
        "name": "Damaging an Anvil",
        "description": "Damaging an Anvil",
        "icon": "item/minecraft/anvil",
        "dependencies": [
            "minecraft:anvil"
        ],
        "results": [
            "minecraft:chipped_anvil"
        ]
    },
    {
        "name": "Damaging a Chipped Anvil",
        "description": "Damaging a Chipped Anvil",
        "icon": "item/minecraft/anvil",
        "dependencies": [
            "minecraft:chipped_anvil"
        ],
        "results": [
            "minecraft:damaged_anvil"
        ]
    },
    {
        "name": "Snow Generator",
        "description": "Getting Snow from Snow Golems",
        "results": [
            "minecraft:snow"
        ],
        "dependencies": null
    },
    {
        "name": "Cat Gifts",
        "description": "Cat Gifts",
        "icon": "icon/cat",
        "results": [
            "minecraft:string",
            "minecraft:rabbit_foot",
            "minecraft:rabbit_hide",
            "minecraft:string",
            "minecraft:rotten_flesh",
            "minecraft:feather",
            "minecraft:chicken",
            "minecraft:phantom_membrane"
        ],
        "dependencies": null
    },
    {
        "name": "Withering any mob",
        "description": "Killing a mob using a wither",
        "results": [
            "minecraft:wither_rose"
        ],
        "dependencies": null
    },
    {
        "name": "Writing a book",
        "description": "Writing a writable book",
        "dependencies": [
            "minecraft:writable_book"
        ],
        "results": [
            "minecraft:written_book"
        ]
    },
    {
        "name": "Breaking Oak Leaves",
        "description": "Breaking Oak Leaves with any tool",
        "icon": "item/minecraft/oak_leaves",
        "dependencies": [
            "minecraft:oak_leaves"
        ],
        "results": [
            "minecraft:oak_sapling",
            "minecraft:apple"
        ]
    },
    {
        "name": "Breaking Spruce Leaves",
        "description": "Breaking Spruce Leaves with any tool",
        "icon": "item/minecraft/spruce_leaves",
        "dependencies": [
            "minecraft:spruce_leaves"
        ],
        "results": [
            "minecraft:spruce_sapling"
        ]
    },
    {
        "name": "Breaking Birch Leaves",
        "description": "Breaking Birch Leaves with any tool",
        "icon": "item/minecraft/birch_leaves",
        "dependencies": [
            "minecraft:birch_leaves"
        ],
        "results": [
            "minecraft:birch_sapling"
        ]
    },
    {
        "name": "Breaking Jungle Leaves",
        "description": "Breaking Jungle Leaves with any tool",
        "icon": "item/minecraft/jungle_leaves",
        "dependencies": [
            "minecraft:jungle_leaves"
        ],
        "results": [
            "minecraft:jungle_sapling"
        ]
    },
    {
        "name": "Breaking Acacia Leaves",
        "description": "Breaking Acacia Leaves with any tool",
        "icon": "item/minecraft/acacia_leaves",
        "dependencies": [
            "minecraft:acacia_leaves"
        ],
        "results": [
            "minecraft:acacia_sapling"
        ]
    },
    {
        "name": "Breaking Dark Oak Leaves",
        "description": "Breaking Dark Oak Leaves with any tool",
        "icon": "item/minecraft/dark_oak_leaves",
        "dependencies": [
            "minecraft:dark_oak_leaves"
        ],
        "results": [
            "minecraft:dark_oak_sapling"
        ]
    },
    {
        "name": "Digging Snow",
        "description": "Digging Snow with a shovel",
        "icon": "icon/shovel",
        "dependencies": [
            "minecraft:snow"
        ],
        "results": [
            "minecraft:snowball"
        ]
    },
    {
        "name": "Breaking Cobweb",
        "description": "Breaking Cobweb with a sword",
        "icon": "icon/sword",
        "dependencies": [
            "minecraft:cobweb"
        ],
        "results": [
            "minecraft:string"
        ]
    },
    {
        "name": "Breaking Melon",
        "description": "Breaking Melon with any tool",
        "icon": "item/minecraft/melon",
        "dependencies": [
            "minecraft:melon"
        ],
        "results": [
            "minecraft:melon_slice"
        ]
    },
    {
        "name": "Using Axe on Oak Log",
        "description": "Right-clicking a Oak Log block while holding an axe",
        "icon": "icon/axe",
        "dependencies": [
            "minecraft:oak_log"
        ],
        "results": [
            "minecraft:stripped_oak_log"
        ]
    },
    {
        "name": "Using Axe on Spruce Log",
        "description": "Right-clicking a Spruce Log block while holding an axe",
        "icon": "icon/axe",
        "dependencies": [
            "minecraft:spruce_log"
        ],
        "results": [
            "minecraft:stripped_spruce_log"
        ]
    },
    {
        "name": "Using Axe on Birch Log",
        "description": "Right-clicking a Birch Log block while holding an axe",
        "icon": "icon/axe",
        "dependencies": [
            "minecraft:birch_log"
        ],
        "results": [
            "minecraft:stripped_birch_log"
        ]
    },
    {
        "name": "Using Axe on Jungle Log",
        "description": "Right-clicking a Jungle Log block while holding an axe",
        "icon": "icon/axe",
        "dependencies": [
            "minecraft:jungle_log"
        ],
        "results": [
            "minecraft:stripped_jungle_log"
        ]
    },
    {
        "name": "Using Axe on Acacia Log",
        "description": "Right-clicking a Acacia Log block while holding an axe",
        "icon": "icon/axe",
        "dependencies": [
            "minecraft:acacia_log"
        ],
        "results": [
            "minecraft:stripped_acacia_log"
        ]
    },
    {
        "name": "Using Axe on Dark Oak Log",
        "description": "Right-clicking a Dark Oak Log block while holding an axe",
        "icon": "icon/axe",
        "dependencies": [
            "minecraft:dark_oak_log"
        ],
        "results": [
            "minecraft:stripped_dark_oak_log"
        ]
    },
    {
        "name": "Using Axe on Crimson Stem",
        "description": "Right-clicking a Crimson Stem block while holding an axe",
        "icon": "icon/axe",
        "dependencies": [
            "minecraft:crimson_stem"
        ],
        "results": [
            "minecraft:stripped_crimson_stem"
        ]
    },
    {
        "name": "Using Axe on Warped Stem",
        "description": "Right-clicking a Warped Stem block while holding an axe",
        "icon": "icon/axe",
        "dependencies": [
            "minecraft:warped_stem"
        ],
        "results": [
            "minecraft:stripped_warped_stem"
        ]
    },
    {
        "name": "Using Axe on Oak Wood",
        "description": "Right-clicking a Oak Wood block while holding an axe",
        "icon": "icon/axe",
        "dependencies": [
            "minecraft:oak_wood"
        ],
        "results": [
            "minecraft:stripped_oak_wood"
        ]
    },
    {
        "name": "Using Axe on Spruce Wood",
        "description": "Right-clicking a Spruce Wood block while holding an axe",
        "icon": "icon/axe",
        "dependencies": [
            "minecraft:spruce_wood"
        ],
        "results": [
            "minecraft:stripped_spruce_wood"
        ]
    },
    {
        "name": "Using Axe on Birch Wood",
        "description": "Right-clicking a Birch Wood block while holding an axe",
        "icon": "icon/axe",
        "dependencies": [
            "minecraft:birch_wood"
        ],
        "results": [
            "minecraft:stripped_birch_wood"
        ]
    },
    {
        "name": "Using Axe on Jungle Wood",
        "description": "Right-clicking a Jungle Wood block while holding an axe",
        "icon": "icon/axe",
        "dependencies": [
            "minecraft:jungle_wood"
        ],
        "results": [
            "minecraft:stripped_jungle_wood"
        ]
    },
    {
        "name": "Using Axe on Acacia Wood",
        "description": "Right-clicking a Acacia Wood block while holding an axe",
        "icon": "icon/axe",
        "dependencies": [
            "minecraft:acacia_wood"
        ],
        "results": [
            "minecraft:stripped_acacia_wood"
        ]
    },
    {
        "name": "Using Axe on Dark Oak Wood",
        "description": "Right-clicking a Dark Oak Wood block while holding an axe",
        "icon": "icon/axe",
        "dependencies": [
            "minecraft:dark_oak_wood"
        ],
        "results": [
            "minecraft:stripped_dark_oak_wood"
        ]
    },
    {
        "name": "Using Axe on Crimson Hyphae",
        "description": "Right-clicking a Crimson Hyphae block while holding an axe",
        "icon": "icon/axe",
        "dependencies": [
            "minecraft:crimson_hyphae"
        ],
        "results": [
            "minecraft:stripped_crimson_hyphae"
        ]
    },
    {
        "name": "Using Axe on Warped Hyphae",
        "description": "Right-clicking a Warped Hyphae block while holding an axe",
        "icon": "icon/axe",
        "dependencies": [
            "minecraft:warped_hyphae"
        ],
        "results": [
            "minecraft:stripped_warped_hyphae"
        ]
    },
    {
        "name": "Fishing",
        "description": "Fishing loot",
        "icon": "item/minecraft/fishing_rod",
        "results": [
            "minecraft:cod",
            "minecraft:salmon",
            "minecraft:tropical_fish",
            "minecraft:pufferFish",
            "minecraft:bow",
            "minecraft:enchanted_book",
            "minecraft:fishing_rod",
            "minecraft:name_tag",
            "minecraft:nautilus_shell",
            "minecraft:saddle",
            "minecraft:lily_pad",
            "minecraft:bowl",
            "minecraft:leather",
            "minecraft:leather_boots",
            "minecraft:rotten_flesh",
            "minecraft:stick",
            "minecraft:string",
            "minecraft:potion",
            "minecraft:bone",
            "minecraft:ink_sac",
            "minecraft:tripwire_hook"
        ],
        "dependencies": null
    },
    {
        "name": "Fishing",
        "description": "Fishing loot (in Jungle biomes)",
        "icon": "item/minecraft/fishing_rod",
        "results": [
            "minecraft:cod",
            "minecraft:salmon",
            "minecraft:tropical_fish",
            "minecraft:pufferFish",
            "minecraft:bow",
            "minecraft:enchanted_book",
            "minecraft:fishing_rod",
            "minecraft:name_tag",
            "minecraft:nautilus_shell",
            "minecraft:saddle",
            "minecraft:lily_pad",
            "minecraft:bamboo",
            "minecraft:cocoa_beans",
            "minecraft:bowl",
            "minecraft:leather",
            "minecraft:leather_boots",
            "minecraft:rotten_flesh",
            "minecraft:stick",
            "minecraft:string",
            "minecraft:potion",
            "minecraft:bone",
            "minecraft:ink_sac",
            "minecraft:tripwire_hook"
        ],
        "dependencies": null
    },
    {
        "name": "Breaking a Clay Block",
        "description": "Breaking a Clay Block without Silk Touch",
        "icon": "item/minecraft/clay",
        "results": [
            {
                "item": "minecraft:clay_ball",
                "count": 4
            }
        ],
        "dependencies": "minecraft:clay"
    },
    {
        "name": "Breaking a Soul Campfire",
        "description": "Breaking a Soul Campfire without Silk Touch",
        "icon": "item/minecraft/soul_campfire",
        "results": "minecraft:soul_soil",
        "dependencies": "minecraft:soul_campfire"
    }
]